out/dump.vcd
$date
	Wed Oct  1 11:45:42 2025
$end
$version
	Icarus Verilog
$end
$timescale
	1s
$end
$scope module test $end
$var wire 8 ! regA_out [7:0] $end
$var wire 8 " regB_out [7:0] $end
$var reg 1 # add_test_failed $end
$var reg 1 $ clk $end
$var reg 1 % mov_test_failed $end
$var reg 1 & shl_test_failed $end
$scope module Comp $end
$var wire 1 $ clk $end
$var wire 8 ' regB_out_bus [7:0] $end
$var wire 8 ( regA_out_bus [7:0] $end
$var wire 4 ) pc_out_bus [3:0] $end
$var wire 8 * muxB_out_bus [7:0] $end
$var wire 9 + im_out_bus [8:0] $end
$var wire 8 , alu_out_bus [7:0] $end
$scope module ALU $end
$var wire 2 - s [1:0] $end
$var wire 8 . b [7:0] $end
$var wire 8 / a [7:0] $end
$var reg 8 0 out [7:0] $end
$upscope $end
$scope module IM $end
$var wire 9 1 out [8:0] $end
$var wire 4 2 address [3:0] $end
$upscope $end
$scope module PC $end
$var wire 1 $ clk $end
$var reg 4 3 pc [3:0] $end
$upscope $end
$scope module muxB $end
$var wire 1 4 c $end
$var wire 8 5 e1 [7:0] $end
$var wire 8 6 e0 [7:0] $end
$var reg 8 7 out [7:0] $end
$upscope $end
$scope module regA $end
$var wire 1 $ clk $end
$var wire 8 8 data [7:0] $end
$var wire 1 9 load $end
$var reg 8 : out [7:0] $end
$upscope $end
$scope module regB $end
$var wire 1 $ clk $end
$var wire 8 ; data [7:0] $end
$var wire 1 < load $end
$var reg 8 = out [7:0] $end
$upscope $end
$upscope $end
$upscope $end
$enddefinitions $end
$comment Show the parameter values. $end
$dumpall
$end
#0
$dumpvars
b0 =
0<
b0 ;
b0 :
09
b0 8
b0 7
b0 6
b1010 5
04
b0 3
b0 2
b101010 1
b0 0
b0 /
b0 .
b10 -
b0 ,
b101010 +
b0 *
b0 )
b0 (
b0 '
0&
0%
0$
0#
b0 "
b0 !
$end
#1
b1011 ,
b1011 0
b1011 8
b1011 ;
b1011 *
b1011 .
b1011 7
b11 -
14
b1011 5
19
b101111011 +
b101111011 1
b1 )
b1 2
b1 3
1$
#2
0$
#3
b0 *
b0 .
b0 7
b1011 ,
b1011 0
b1011 8
b1011 ;
b0 -
04
b10 5
09
b1011 !
b1011 (
b1011 /
b1011 :
b10 +
b10 1
b10 )
b10 2
b10 3
1$
1%
#4
0$
#5
b1110 ,
b1110 0
b1110 8
b1110 ;
b11 *
b11 .
b11 7
14
b11 5
b100000011 +
b100000011 1
b11 )
b11 2
b11 3
1$
#6
0$
#7
b1011 ,
b1011 0
b1011 8
b1011 ;
b0 *
b0 .
b0 7
04
b0 5
b0 +
b0 1
b100 )
b100 2
b100 3
1$
1#
#8
0$
#9
b101 5
b101 +
b101 1
b101 )
b101 2
b101 3
1$
#10
0$
#11
b0 5
b0 +
b0 1
b110 )
b110 2
b110 3
1$
#12
0$
#13
bx -
x4
b0xxxx 5
x<
x9
bx +
bx 1
b111 )
b111 2
b111 3
1$
1&
#14
0$
#15
b1000 )
b1000 2
b1000 3
1$
#16
0$
#17
b1001 )
b1001 2
b1001 3
1$
