out/dump.vcd
$date
	Wed Oct  8 00:17:53 2025
$end
$version
	Icarus Verilog
$end
$timescale
	1s
$end
$scope module test $end
$var wire 8 ! regA_out [7:0] $end
$var wire 8 " regB_out [7:0] $end
$var reg 1 # add_a_dir_test_failed $end
$var reg 1 $ clk $end
$var reg 1 % jeq_test_1_failed $end
$var reg 1 & mem_sequence_test_failed $end
$scope module Comp $end
$var wire 1 $ clk $end
$var wire 8 ' regB_out_bus [7:0] $end
$var wire 1 ( regB_load $end
$var wire 8 ) regA_out_bus [7:0] $end
$var wire 1 * regA_load $end
$var wire 8 + pc_out_bus [7:0] $end
$var wire 7 , opcode [6:0] $end
$var wire 2 - muxB_sel [1:0] $end
$var wire 8 . muxB_out_bus [7:0] $end
$var wire 1 / muxA_sel $end
$var wire 8 0 muxA_out_bus [7:0] $end
$var wire 1 1 mem_write $end
$var wire 8 2 mem_data_out [7:0] $end
$var wire 8 3 mem_address [7:0] $end
$var wire 8 4 literal [7:0] $end
$var wire 4 5 jump_cond [3:0] $end
$var wire 1 6 is_jump $end
$var wire 15 7 im_out_bus [14:0] $end
$var wire 1 8 flags_write $end
$var wire 8 9 alu_out_bus [7:0] $end
$var wire 4 : alu_op [3:0] $end
$var wire 1 ; addr_sel $end
$scope module ALU $end
$var wire 4 < s [3:0] $end
$var wire 8 = b [7:0] $end
$var wire 8 > a [7:0] $end
$var reg 8 ? out [7:0] $end
$upscope $end
$scope module CU $end
$var wire 7 @ opcode [6:0] $end
$var reg 1 ; addr_sel $end
$var reg 4 A alu_op [3:0] $end
$var reg 1 8 flags_write $end
$var reg 1 6 is_jump $end
$var reg 4 B jump_cond [3:0] $end
$var reg 1 1 mem_write $end
$var reg 1 / muxA_sel $end
$var reg 2 C muxB_sel [1:0] $end
$var reg 1 * regA_load $end
$var reg 1 ( regB_load $end
$upscope $end
$scope module DM $end
$var wire 1 $ clk $end
$var wire 1 1 write_enable $end
$var wire 8 D data_in [7:0] $end
$var wire 8 E address [7:0] $end
$var reg 8 F data_out [7:0] $end
$var integer 32 G i [31:0] $end
$upscope $end
$scope module IM $end
$var wire 8 H address [7:0] $end
$var reg 15 I out [14:0] $end
$upscope $end
$scope module PC $end
$var wire 1 $ clk $end
$var reg 8 J pc [7:0] $end
$upscope $end
$scope module addr_mux $end
$var wire 8 K literal [7:0] $end
$var wire 1 ; sel $end
$var wire 8 L regB [7:0] $end
$var reg 8 M address [7:0] $end
$upscope $end
$scope module muxA_inst $end
$var wire 1 / sel $end
$var wire 8 N regB [7:0] $end
$var wire 8 O regA [7:0] $end
$var reg 8 P out [7:0] $end
$upscope $end
$scope module muxB_inst $end
$var wire 8 Q literal [7:0] $end
$var wire 8 R mem_data [7:0] $end
$var wire 2 S sel [1:0] $end
$var wire 8 T regB [7:0] $end
$var reg 8 U out [7:0] $end
$upscope $end
$scope module regA $end
$var wire 1 $ clk $end
$var wire 8 V data [7:0] $end
$var wire 1 * load $end
$var reg 8 W out [7:0] $end
$upscope $end
$scope module regB $end
$var wire 1 $ clk $end
$var wire 8 X data [7:0] $end
$var wire 1 ( load $end
$var reg 8 Y out [7:0] $end
$upscope $end
$upscope $end
$upscope $end
$enddefinitions $end
$comment Show the parameter values. $end
$dumpall
$end
#0
$dumpvars
b0 Y
b1100011 X
b0 W
b1100011 V
b1100011 U
b0 T
b1 S
b0 R
b1100011 Q
b0 P
b0 O
b0 N
b1100011 M
b0 L
b1100011 K
b0 J
b1101100011 I
b0 H
b100000000 G
b0 F
b1100011 E
b0 D
b1 C
b0 B
b1001 A
b11 @
b1100011 ?
b0 >
b1100011 =
b1001 <
0;
b1001 :
b1100011 9
08
b1101100011 7
06
b0 5
b1100011 4
b1100011 3
b0 2
01
b0 0
0/
b1100011 .
b1 -
b11 ,
b0 +
0*
b0 )
1(
b0 '
0&
0%
0$
0#
b0 "
b0 !
$end
#1
b1100011 0
b1100011 >
b1100011 D
b1100011 P
b110010 3
b110010 E
b110010 M
11
0(
b0 -
b0 C
b0 S
1/
b110010 4
b110010 K
b110010 Q
b101000 ,
b101000 @
b10100000110010 7
b10100000110010 I
b1 +
b1 H
b1 J
b1100011 "
b1100011 '
b1100011 L
b1100011 N
b1100011 T
b1100011 Y
1$
#2
0$
#3
b0 0
b0 >
b0 D
b0 P
01
1*
b10 -
b10 C
b10 S
0/
b100101 ,
b100101 @
b10010100110010 7
b10010100110010 I
b10 +
b10 H
b10 J
b1100011 2
b1100011 F
b1100011 R
1$
#4
0$
#5
b0 2
b0 F
b0 R
b1111011 9
b1111011 ?
b1111011 V
b1111011 X
b1111011 3
b1111011 E
b1111011 M
b1111011 .
b1111011 =
b1111011 U
b1 -
b1 C
b1 S
b1111011 4
b1111011 K
b1111011 Q
b10 ,
b10 @
b1001111011 7
b1001111011 I
b1100011 0
b1100011 >
b1100011 D
b1100011 P
b11 +
b11 H
b11 J
b1100011 !
b1100011 )
b1100011 O
b1100011 W
1$
#6
0$
#7
b10101110 9
b10101110 ?
b10101110 V
b10101110 X
b110011 3
b110011 E
b110011 M
b110011 .
b110011 =
b110011 U
11
0*
b0 :
b0 <
b0 A
b110011 4
b110011 K
b110011 Q
b100111 ,
b100111 @
b1111011 0
b1111011 >
b1111011 D
b1111011 P
b10011100110011 7
b10011100110011 I
b1111011 !
b1111011 )
b1111011 O
b1111011 W
b100 +
b100 H
b100 J
1$
#8
0$
#9
b1111011 .
b1111011 =
b1111011 U
b1111011 9
b1111011 ?
b1111011 V
b1111011 X
01
1(
b10 -
b10 C
b10 S
b1001 :
b1001 <
b1001 A
b100110 ,
b100110 @
b10011000110011 7
b10011000110011 I
b101 +
b101 H
b101 J
b1111011 2
b1111011 F
b1111011 R
1$
#10
0$
#11
b0 2
b0 F
b0 R
b11111111 9
b11111111 ?
b11111111 V
b11111111 X
b11111111 3
b11111111 E
b11111111 M
b11111111 .
b11111111 =
b11111111 U
0(
1*
b1 -
b1 C
b1 S
b11111111 4
b11111111 K
b11111111 Q
b10 ,
b10 @
b1011111111 7
b1011111111 I
b1111011 "
b1111011 '
b1111011 L
b1111011 N
b1111011 T
b1111011 Y
b110 +
b110 H
b110 J
1$
#12
0$
#13
b1100011 2
b1100011 F
b1100011 R
b110001 9
b110001 ?
b110001 V
b110001 X
b110010 3
b110010 E
b110010 M
b110010 .
b110010 =
b110010 U
11
0*
b0 :
b0 <
b0 A
b110010 4
b110010 K
b110010 Q
b100111 ,
b100111 @
b10011100110010 7
b10011100110010 I
b11111111 0
b11111111 >
b11111111 D
b11111111 P
b111 +
b111 H
b111 J
b11111111 !
b11111111 )
b11111111 O
b11111111 W
1$
#14
0$
#15
b0 9
b0 ?
b0 V
b0 X
b0 3
b0 E
b0 M
b0 .
b0 =
b0 U
01
1*
b1001 :
b1001 <
b1001 A
b0 4
b0 K
b0 Q
b10 ,
b10 @
b1000000000 7
b1000000000 I
b1000 +
b1000 H
b1000 J
b0 2
b0 F
b0 R
1$
#16
0$
#17
b11111111 9
b11111111 ?
b11111111 V
b11111111 X
b11111111 .
b11111111 =
b11111111 U
b11111111 2
b11111111 F
b11111111 R
b110010 3
b110010 E
b110010 M
b10 -
b10 C
b10 S
b110010 4
b110010 K
b110010 Q
b100101 ,
b100101 @
b10010100110010 7
b10010100110010 I
b0 0
b0 >
b0 D
b0 P
b1001 +
b1001 H
b1001 J
b0 !
b0 )
b0 O
b0 W
1$
#18
0$
#19
b0 2
b0 F
b0 R
b1100100 9
b1100100 ?
b1100100 V
b1100100 X
b1100100 3
b1100100 E
b1100100 M
b1100100 .
b1100100 =
b1100100 U
b1 -
b1 C
b1 S
b1100100 4
b1100100 K
b1100100 Q
b10 ,
b10 @
b11111111 0
b11111111 >
b11111111 D
b11111111 P
b1001100100 7
b1001100100 I
b11111111 !
b11111111 )
b11111111 O
b11111111 W
b1010 +
b1010 H
b1010 J
1$
#20
0$
#21
b11111111 2
b11111111 F
b11111111 R
b110010 9
b110010 ?
b110010 V
b110010 X
b110010 3
b110010 E
b110010 M
b110010 .
b110010 =
b110010 U
1(
0*
b110010 4
b110010 K
b110010 Q
b11 ,
b11 @
b1100110010 7
b1100110010 I
b1100100 0
b1100100 >
b1100100 D
b1100100 P
b1011 +
b1011 H
b1011 J
b1100100 !
b1100100 )
b1100100 O
b1100100 W
1$
#22
0$
#23
b0 2
b0 F
b0 R
b110010 0
b110010 >
b110010 D
b110010 P
b1111000 3
b1111000 E
b1111000 M
11
0(
b0 -
b0 C
b0 S
1/
b1111000 4
b1111000 K
b1111000 Q
b101000 ,
b101000 @
b10100001111000 7
b10100001111000 I
b110010 "
b110010 '
b110010 L
b110010 N
b110010 T
b110010 Y
b1100 +
b1100 H
b1100 J
1$
#24
0$
#25
b1100100 0
b1100100 >
b1100100 D
b1100100 P
b10010110 9
b10010110 ?
b10010110 V
b10010110 X
01
1*
b10 -
b10 C
b10 S
0/
b0 :
b0 <
b0 A
b101100 ,
b101100 @
b10110001111000 7
b10110001111000 I
b1101 +
b1101 H
b1101 J
b110010 2
b110010 F
b110010 R
1$
#26
0$
#27
b0 2
b0 F
b0 R
b11001 3
b11001 E
b11001 M
b11001 .
b11001 =
b11001 U
b1 -
b1 C
b1 S
b1001 :
b1001 <
b1001 A
b11001 9
b11001 ?
b11001 V
b11001 X
b11001 4
b11001 K
b11001 Q
b10 ,
b10 @
b10010110 0
b10010110 >
b10010110 D
b10010110 P
b1000011001 7
b1000011001 I
b10010110 !
b10010110 )
b10010110 O
b10010110 W
b1110 +
b1110 H
b1110 J
1$
#28
0$
#29
1(
0*
b11 ,
b11 @
b1100011001 7
b1100011001 I
b11001 0
b11001 >
b11001 D
b11001 P
b1111 +
b1111 H
b1111 J
b11001 !
b11001 )
b11001 O
b11001 W
1$
#30
0$
#31
b0 9
b0 ?
b0 V
b0 X
b0 3
b0 E
b0 M
18
0(
b0 -
b0 C
b0 S
b1 :
b1 <
b1 A
b0 4
b0 K
b0 Q
b1001101 ,
b1001101 @
b100110100000000 7
b100110100000000 I
b11001 "
b11001 '
b11001 L
b11001 N
b11001 T
b11001 Y
b10000 +
b10000 H
b10000 J
1$
#32
0$
#33
b110010 9
b110010 ?
b110010 V
b110010 X
b10100 3
b10100 E
b10100 M
b1 5
b1 B
16
08
b0 :
b0 <
b0 A
b10100 4
b10100 K
b10100 Q
b1010100 ,
b1010100 @
b101010000010100 7
b101010000010100 I
b10001 +
b10001 H
b10001 J
1$
#34
0$
#35
b10 9
b10 ?
b10 V
b10 X
b10 3
b10 E
b10 M
b10 .
b10 =
b10 U
b0 5
b0 B
06
1(
b1 -
b1 C
b1 S
b1001 :
b1001 <
b1001 A
b10 4
b10 K
b10 Q
b11 ,
b11 @
b1100000010 7
b1100000010 I
b10010 +
b10010 H
b10010 J
1$
#36
0$
#37
b11011 9
b11011 ?
b11011 V
b11011 X
b10101 3
b10101 E
b10101 M
0(
b0 -
b0 C
b0 S
b0 :
b0 <
b0 A
b10101 4
b10101 K
b10101 Q
b1010000 ,
b1010000 @
b101000000010101 7
b101000000010101 I
b10011 +
b10011 H
b10011 J
b10 "
b10 '
b10 L
b10 N
b10 T
b10 Y
1$
#38
0$
#39
b1 9
b1 ?
b1 V
b1 X
b1 3
b1 E
b1 M
b1 .
b1 =
b1 U
1(
b1 -
b1 C
b1 S
b1001 :
b1001 <
b1001 A
b1 4
b1 K
b1 Q
b11 ,
b11 @
b1100000001 7
b1100000001 I
b10100 +
b10100 H
b10100 J
1$
#40
0$
#41
b1 0
b1 >
b1 D
b1 P
b1100100 3
b1100100 E
b1100100 M
11
0(
b0 -
b0 C
b0 S
1/
b1100100 4
b1100100 K
b1100100 Q
b101000 ,
b101000 @
b10100001100100 7
b10100001100100 I
b10101 +
b10101 H
b10101 J
b1 "
b1 '
b1 L
b1 N
b1 T
b1 Y
1$
#42
0$
#43
b11001 0
b11001 >
b11001 D
b11001 P
b11010 9
b11010 ?
b11010 V
b11010 X
bx 3
bx E
bx M
01
0/
b0 :
b0 <
b0 A
bx 4
bx K
bx Q
bx ,
bx @
bx 7
bx I
b10110 +
b10110 H
b10110 J
bx 2
bx F
bx R
1$
#44
0$
#45
b10111 +
b10111 H
b10111 J
1$
