out/dump.vcd
$date
	Tue Oct  7 18:11:42 2025
$end
$version
	Icarus Verilog
$end
$timescale
	1s
$end
$scope module test $end
$var wire 8 ! regA_out [7:0] $end
$var wire 8 " regB_out [7:0] $end
$var reg 1 # add_test_failed $end
$var reg 1 $ and_test_failed $end
$var reg 1 % clk $end
$var reg 1 & inc_test_failed $end
$var reg 1 ' mov_test_failed $end
$var reg 1 ( not_test_failed $end
$var reg 1 ) or_test_failed $end
$var reg 1 * reg_mov_test_failed $end
$var reg 1 + shl_test_failed $end
$var reg 1 , shr_test_failed $end
$var reg 1 - sub_test_failed $end
$var reg 1 . xor_test_failed $end
$scope module Comp $end
$var wire 1 % clk $end
$var wire 8 / regB_out_bus [7:0] $end
$var wire 1 0 regB_load $end
$var wire 8 1 regA_out_bus [7:0] $end
$var wire 1 2 regA_load $end
$var wire 8 3 pc_out_bus [7:0] $end
$var wire 7 4 opcode [6:0] $end
$var wire 1 5 muxB_sel $end
$var wire 8 6 muxB_out_bus [7:0] $end
$var wire 1 7 muxA_sel $end
$var wire 8 8 muxA_out_bus [7:0] $end
$var wire 8 9 literal [7:0] $end
$var wire 15 : im_out_bus [14:0] $end
$var wire 8 ; alu_out_bus [7:0] $end
$var wire 4 < alu_op [3:0] $end
$scope module ALU $end
$var wire 4 = s [3:0] $end
$var wire 8 > b [7:0] $end
$var wire 8 ? a [7:0] $end
$var reg 8 @ out [7:0] $end
$upscope $end
$scope module CU $end
$var wire 7 A opcode [6:0] $end
$var reg 4 B alu_op [3:0] $end
$var reg 1 7 muxA_sel $end
$var reg 1 5 muxB_sel $end
$var reg 1 2 regA_load $end
$var reg 1 0 regB_load $end
$upscope $end
$scope module IM $end
$var wire 8 C address [7:0] $end
$var reg 15 D out [14:0] $end
$upscope $end
$scope module PC $end
$var wire 1 % clk $end
$var reg 8 E pc [7:0] $end
$upscope $end
$scope module muxA_inst $end
$var wire 1 7 sel $end
$var wire 8 F regB [7:0] $end
$var wire 8 G regA [7:0] $end
$var reg 8 H out [7:0] $end
$upscope $end
$scope module muxB_inst $end
$var wire 8 I literal [7:0] $end
$var wire 1 5 sel $end
$var wire 8 J regB [7:0] $end
$var reg 8 K out [7:0] $end
$upscope $end
$scope module regA $end
$var wire 1 % clk $end
$var wire 8 L data [7:0] $end
$var wire 1 2 load $end
$var reg 8 M out [7:0] $end
$upscope $end
$scope module regB $end
$var wire 1 % clk $end
$var wire 8 N data [7:0] $end
$var wire 1 0 load $end
$var reg 8 O out [7:0] $end
$upscope $end
$upscope $end
$upscope $end
$enddefinitions $end
$comment Show the parameter values. $end
$dumpall
$end
#0
$dumpvars
b0 O
bx N
b0 M
bx L
bx K
b0 J
bx I
bx H
b0 G
b0 F
b11111111 E
bx D
b11111111 C
bx B
bx A
bx @
bx ?
bx >
bx =
bx <
bx ;
bx :
bx 9
bx 8
x7
bx 6
x5
bx 4
b11111111 3
x2
b0 1
x0
b0 /
0.
0-
0,
0+
0*
0)
0(
0'
0&
0%
0$
0#
b0 "
b0 !
$end
#1
b0 8
b0 ?
b0 H
b101010 ;
b101010 @
b101010 L
b101010 N
b101010 6
b101010 >
b101010 K
00
12
15
07
b1001 <
b1001 =
b1001 B
b101010 9
b101010 I
b10 4
b10 A
b1000101010 :
b1000101010 D
b0 3
b0 C
b0 E
1%
#2
b101010 8
b101010 ?
b101010 H
b101010 !
b101010 1
b101010 G
b101010 M
0%
#3
b1111011 ;
b1111011 @
b1111011 L
b1111011 N
b1111011 6
b1111011 >
b1111011 K
10
02
b1111011 9
b1111011 I
b11 4
b11 A
b1101111011 :
b1101111011 D
b1 3
b1 C
b1 E
1%
#4
b1111011 "
b1111011 /
b1111011 F
b1111011 J
b1111011 O
0%
#5
b1010101 ;
b1010101 @
b1010101 L
b1010101 N
b1010101 6
b1010101 >
b1010101 K
b1010101 9
b1010101 I
b1101010101 :
b1101010101 D
b10 3
b10 C
b10 E
1%
#6
b1010101 "
b1010101 /
b1010101 F
b1010101 J
b1010101 O
0%
#7
b10101010 ;
b10101010 @
b10101010 L
b10101010 N
b10101010 6
b10101010 >
b10101010 K
00
12
b10101010 9
b10101010 I
b10 4
b10 A
b1010101010 :
b1010101010 D
b11 3
b11 C
b11 E
1%
#8
b10101010 8
b10101010 ?
b10101010 H
b10101010 !
b10101010 1
b10101010 G
b10101010 M
0%
#9
b1010101 ;
b1010101 @
b1010101 L
b1010101 N
b1010101 8
b1010101 ?
b1010101 H
b0 6
b0 >
b0 K
17
b0 <
b0 =
b0 B
b0 9
b0 I
b0 4
b0 A
b0 :
b0 D
b100 3
b100 C
b100 E
1%
#10
b1010101 !
b1010101 1
b1010101 G
b1010101 M
0%
#11
b1100011 ;
b1100011 @
b1100011 L
b1100011 N
b1100011 6
b1100011 >
b1100011 K
07
b1001 <
b1001 =
b1001 B
b1100011 9
b1100011 I
b10 4
b10 A
b1001100011 :
b1001100011 D
b101 3
b101 C
b101 E
1%
#12
b1100011 8
b1100011 ?
b1100011 H
b1100011 !
b1100011 1
b1100011 G
b1100011 M
0%
#13
b0 6
b0 >
b0 K
10
02
b0 <
b0 =
b0 B
b0 9
b0 I
b1 4
b1 A
b100000000 :
b100000000 D
b110 3
b110 C
b110 E
1%
#14
b1100011 "
b1100011 /
b1100011 F
b1100011 J
b1100011 O
0%
#15
b10 ;
b10 @
b10 L
b10 N
b10 6
b10 >
b10 K
00
12
b1001 <
b1001 =
b1001 B
b10 9
b10 I
b10 4
b10 A
b1000000010 :
b1000000010 D
b111 3
b111 C
b111 E
1%
#16
b10 8
b10 ?
b10 H
b10 !
b10 1
b10 G
b10 M
0%
#17
b11 ;
b11 @
b11 L
b11 N
b11 6
b11 >
b11 K
10
02
b11 9
b11 I
b11 4
b11 A
b1100000011 :
b1100000011 D
b1000 3
b1000 C
b1000 E
1%
#18
b11 "
b11 /
b11 F
b11 J
b11 O
0%
#19
b101 ;
b101 @
b101 L
b101 N
00
12
05
b0 <
b0 =
b0 B
b0 9
b0 I
b100 4
b100 A
b10000000000 :
b10000000000 D
b1001 3
b1001 C
b1001 E
1%
#20
b1000 ;
b1000 @
b1000 L
b1000 N
b101 8
b101 ?
b101 H
b101 !
b101 1
b101 G
b101 M
0%
#21
b1111 ;
b1111 @
b1111 L
b1111 N
b1010 6
b1010 >
b1010 K
15
b1010 9
b1010 I
b110 4
b110 A
b11000001010 :
b11000001010 D
b1010 3
b1010 C
b1010 E
1%
#22
b11001 ;
b11001 @
b11001 L
b11001 N
b1111 8
b1111 ?
b1111 H
b1111 !
b1111 1
b1111 G
b1111 M
0%
#23
b10111 ;
b10111 @
b10111 L
b10111 N
b11 8
b11 ?
b11 H
b10100 6
b10100 >
b10100 K
10
02
17
b10100 9
b10100 I
b111 4
b111 A
b11100010100 :
b11100010100 D
b1011 3
b1011 C
b1011 E
1%
#24
b101011 ;
b101011 @
b101011 L
b101011 N
b10111 8
b10111 ?
b10111 H
b10111 "
b10111 /
b10111 F
b10111 J
b10111 O
0%
#25
b1111 8
b1111 ?
b1111 H
b10100 ;
b10100 @
b10100 L
b10100 N
00
12
07
b1001 <
b1001 =
b1001 B
b10 4
b10 A
b1000010100 :
b1000010100 D
b1100 3
b1100 C
b1100 E
1%
#26
b10100 8
b10100 ?
b10100 H
b10100 !
b10100 1
b10100 G
b10100 M
0%
#27
b101 ;
b101 @
b101 L
b101 N
b101 6
b101 >
b101 K
10
02
b101 9
b101 I
b11 4
b11 A
b1100000101 :
b1100000101 D
b1101 3
b1101 C
b1101 E
1%
#28
b101 "
b101 /
b101 F
b101 J
b101 O
0%
#29
b1111 ;
b1111 @
b1111 L
b1111 N
00
12
05
b1 <
b1 =
b1 B
b0 9
b0 I
b1000 4
b1000 A
b100000000000 :
b100000000000 D
b1110 3
b1110 C
b1110 E
1%
#30
b1010 ;
b1010 @
b1010 L
b1010 N
b1111 8
b1111 ?
b1111 H
b1111 !
b1111 1
b1111 G
b1111 M
0%
#31
10
02
b1001 4
b1001 A
b100100000000 :
b100100000000 D
b1111 3
b1111 C
b1111 E
1%
#32
b101 ;
b101 @
b101 L
b101 N
b1010 6
b1010 >
b1010 K
b1010 "
b1010 /
b1010 F
b1010 J
b1010 O
0%
#33
b1000 ;
b1000 @
b1000 L
b1000 N
b111 6
b111 >
b111 K
00
12
15
b111 9
b111 I
b1010 4
b1010 A
b101000000111 :
b101000000111 D
b10000 3
b10000 C
b10000 E
1%
#34
b1 ;
b1 @
b1 L
b1 N
b1000 8
b1000 ?
b1000 H
b1000 !
b1000 1
b1000 G
b1000 M
0%
#35
b0 ;
b0 @
b0 L
b0 N
b1010 8
b1010 ?
b1010 H
b1010 6
b1010 >
b1010 K
10
02
17
b1010 9
b1010 I
b1011 4
b1011 A
b101100001010 :
b101100001010 D
b10001 3
b10001 C
b10001 E
1%
#36
b11110110 ;
b11110110 @
b11110110 L
b11110110 N
b0 8
b0 ?
b0 H
b0 "
b0 /
b0 F
b0 J
b0 O
0%
#37
b1000 8
b1000 ?
b1000 H
b11001010 ;
b11001010 @
b11001010 L
b11001010 N
b11001010 6
b11001010 >
b11001010 K
00
12
07
b1001 <
b1001 =
b1001 B
b11001010 9
b11001010 I
b10 4
b10 A
b1011001010 :
b1011001010 D
b10010 3
b10010 C
b10010 E
1%
#38
b11001010 8
b11001010 ?
b11001010 H
b11001010 !
b11001010 1
b11001010 G
b11001010 M
0%
#39
b10101110 ;
b10101110 @
b10101110 L
b10101110 N
b10101110 6
b10101110 >
b10101110 K
10
02
b10101110 9
b10101110 I
b11 4
b11 A
b1110101110 :
b1110101110 D
b10011 3
b10011 C
b10011 E
1%
#40
b10101110 "
b10101110 /
b10101110 F
b10101110 J
b10101110 O
0%
#41
b10001010 ;
b10001010 @
b10001010 L
b10001010 N
00
12
05
b10 <
b10 =
b10 B
b0 9
b0 I
b1100 4
b1100 A
b110000000000 :
b110000000000 D
b10100 3
b10100 C
b10100 E
1%
#42
b10001010 8
b10001010 ?
b10001010 H
b10001010 !
b10001010 1
b10001010 G
b10001010 M
0%
#43
10
02
b1101 4
b1101 A
b110100000000 :
b110100000000 D
b10101 3
b10101 C
b10101 E
1%
#44
b10001010 6
b10001010 >
b10001010 K
b10001010 "
b10001010 /
b10001010 F
b10001010 J
b10001010 O
0%
#45
b11110000 ;
b11110000 @
b11110000 L
b11110000 N
b11110000 6
b11110000 >
b11110000 K
00
12
15
b1001 <
b1001 =
b1001 B
b11110000 9
b11110000 I
b10 4
b10 A
b1011110000 :
b1011110000 D
b10110 3
b10110 C
b10110 E
1%
#46
b11110000 8
b11110000 ?
b11110000 H
b11110000 !
b11110000 1
b11110000 G
b11110000 M
0%
#47
b1010000 ;
b1010000 @
b1010000 L
b1010000 N
b1010101 6
b1010101 >
b1010101 K
b10 <
b10 =
b10 B
b1010101 9
b1010101 I
b1110 4
b1110 A
b111001010101 :
b111001010101 D
b10111 3
b10111 C
b10111 E
1%
#48
b1010000 8
b1010000 ?
b1010000 H
b1010000 !
b1010000 1
b1010000 G
b1010000 M
0%
#49
b11001100 ;
b11001100 @
b11001100 L
b11001100 N
b11001100 6
b11001100 >
b11001100 K
10
02
b1001 <
b1001 =
b1001 B
b11001100 9
b11001100 I
b11 4
b11 A
b1111001100 :
b1111001100 D
b11000 3
b11000 C
b11000 E
1%
#50
b11001100 "
b11001100 /
b11001100 F
b11001100 J
b11001100 O
0%
#51
b11001100 8
b11001100 ?
b11001100 H
b10001000 ;
b10001000 @
b10001000 L
b10001000 N
b10101010 6
b10101010 >
b10101010 K
17
b10 <
b10 =
b10 B
b10101010 9
b10101010 I
b1111 4
b1111 A
b111110101010 :
b111110101010 D
b11001 3
b11001 C
b11001 E
1%
#52
b10001000 8
b10001000 ?
b10001000 H
b10001000 "
b10001000 /
b10001000 F
b10001000 J
b10001000 O
0%
#53
b1010000 8
b1010000 ?
b1010000 H
b11001010 ;
b11001010 @
b11001010 L
b11001010 N
b11001010 6
b11001010 >
b11001010 K
00
12
07
b1001 <
b1001 =
b1001 B
b11001010 9
b11001010 I
b10 4
b10 A
b1011001010 :
b1011001010 D
b11010 3
b11010 C
b11010 E
1%
#54
b11001010 8
b11001010 ?
b11001010 H
b11001010 !
b11001010 1
b11001010 G
b11001010 M
0%
#55
b10101110 ;
b10101110 @
b10101110 L
b10101110 N
b10101110 6
b10101110 >
b10101110 K
10
02
b10101110 9
b10101110 I
b11 4
b11 A
b1110101110 :
b1110101110 D
b11011 3
b11011 C
b11011 E
1%
#56
b10101110 "
b10101110 /
b10101110 F
b10101110 J
b10101110 O
0%
#57
b11101110 ;
b11101110 @
b11101110 L
b11101110 N
00
12
05
b11 <
b11 =
b11 B
b0 9
b0 I
b10000 4
b10000 A
b1000000000000 :
b1000000000000 D
b11100 3
b11100 C
b11100 E
1%
#58
b11101110 8
b11101110 ?
b11101110 H
b11101110 !
b11101110 1
b11101110 G
b11101110 M
0%
#59
10
02
b10001 4
b10001 A
b1000100000000 :
b1000100000000 D
b11101 3
b11101 C
b11101 E
1%
#60
b11101110 6
b11101110 >
b11101110 K
b11101110 "
b11101110 /
b11101110 F
b11101110 J
b11101110 O
0%
#61
b110011 ;
b110011 @
b110011 L
b110011 N
b110011 6
b110011 >
b110011 K
00
12
15
b1001 <
b1001 =
b1001 B
b110011 9
b110011 I
b10 4
b10 A
b1000110011 :
b1000110011 D
b11110 3
b11110 C
b11110 E
1%
#62
b110011 8
b110011 ?
b110011 H
b110011 !
b110011 1
b110011 G
b110011 M
0%
#63
b11110011 ;
b11110011 @
b11110011 L
b11110011 N
b11110000 6
b11110000 >
b11110000 K
b11 <
b11 =
b11 B
b11110000 9
b11110000 I
b10010 4
b10010 A
b1001011110000 :
b1001011110000 D
b11111 3
b11111 C
b11111 E
1%
#64
b11110011 8
b11110011 ?
b11110011 H
b11110011 !
b11110011 1
b11110011 G
b11110011 M
0%
#65
b10100101 ;
b10100101 @
b10100101 L
b10100101 N
b10100101 6
b10100101 >
b10100101 K
10
02
b1001 <
b1001 =
b1001 B
b10100101 9
b10100101 I
b11 4
b11 A
b1110100101 :
b1110100101 D
b100000 3
b100000 C
b100000 E
1%
#66
b10100101 "
b10100101 /
b10100101 F
b10100101 J
b10100101 O
0%
#67
b10100101 8
b10100101 ?
b10100101 H
b11111111 ;
b11111111 @
b11111111 L
b11111111 N
b1011010 6
b1011010 >
b1011010 K
17
b11 <
b11 =
b11 B
b1011010 9
b1011010 I
b10011 4
b10011 A
b1001101011010 :
b1001101011010 D
b100001 3
b100001 C
b100001 E
1%
#68
b11111111 8
b11111111 ?
b11111111 H
b11111111 "
b11111111 /
b11111111 F
b11111111 J
b11111111 O
0%
#69
b11110011 8
b11110011 ?
b11110011 H
b10101010 ;
b10101010 @
b10101010 L
b10101010 N
b10101010 6
b10101010 >
b10101010 K
00
12
07
b1001 <
b1001 =
b1001 B
b10101010 9
b10101010 I
b10 4
b10 A
b1010101010 :
b1010101010 D
b100010 3
b100010 C
b100010 E
1%
#70
b10101010 8
b10101010 ?
b10101010 H
b10101010 !
b10101010 1
b10101010 G
b10101010 M
0%
#71
b1010101 ;
b1010101 @
b1010101 L
b1010101 N
b11111111 6
b11111111 >
b11111111 K
05
b100 <
b100 =
b100 B
b0 9
b0 I
b10100 4
b10100 A
b1010000000000 :
b1010000000000 D
b100011 3
b100011 C
b100011 E
1%
#72
b10101010 ;
b10101010 @
b10101010 L
b10101010 N
b1010101 8
b1010101 ?
b1010101 H
b1010101 !
b1010101 1
b1010101 G
b1010101 M
0%
#73
b11001100 ;
b11001100 @
b11001100 L
b11001100 N
b11001100 6
b11001100 >
b11001100 K
10
02
15
b1001 <
b1001 =
b1001 B
b11001100 9
b11001100 I
b11 4
b11 A
b1111001100 :
b1111001100 D
b100100 3
b100100 C
b100100 E
1%
#74
b11001100 "
b11001100 /
b11001100 F
b11001100 J
b11001100 O
0%
#75
b11001100 8
b11001100 ?
b11001100 H
b110011 ;
b110011 @
b110011 L
b110011 N
05
17
b100 <
b100 =
b100 B
b0 9
b0 I
b10111 4
b10111 A
b1011100000000 :
b1011100000000 D
b100101 3
b100101 C
b100101 E
1%
#76
b11001100 ;
b11001100 @
b11001100 L
b11001100 N
b110011 8
b110011 ?
b110011 H
b110011 6
b110011 >
b110011 K
b110011 "
b110011 /
b110011 F
b110011 J
b110011 O
0%
#77
b1010101 8
b1010101 ?
b1010101 H
b11111111 ;
b11111111 @
b11111111 L
b11111111 N
b11111111 6
b11111111 >
b11111111 K
00
12
15
07
b1001 <
b1001 =
b1001 B
b11111111 9
b11111111 I
b10 4
b10 A
b1011111111 :
b1011111111 D
b100110 3
b100110 C
b100110 E
1%
#78
b11111111 8
b11111111 ?
b11111111 H
b11111111 !
b11111111 1
b11111111 G
b11111111 M
0%
#79
b11110000 ;
b11110000 @
b11110000 L
b11110000 N
b11110000 6
b11110000 >
b11110000 K
10
02
b11110000 9
b11110000 I
b11 4
b11 A
b1111110000 :
b1111110000 D
b100111 3
b100111 C
b100111 E
1%
#80
b11110000 "
b11110000 /
b11110000 F
b11110000 J
b11110000 O
0%
#81
b11110000 8
b11110000 ?
b11110000 H
b1111 ;
b1111 @
b1111 L
b1111 N
00
12
05
17
b100 <
b100 =
b100 B
b0 9
b0 I
b10101 4
b10101 A
b1010100000000 :
b1010100000000 D
b101000 3
b101000 C
b101000 E
1%
#82
b1111 !
b1111 1
b1111 G
b1111 M
0%
#83
b1111 8
b1111 ?
b1111 H
b1111 6
b1111 >
b1111 K
15
07
b1001 <
b1001 =
b1001 B
b1111 9
b1111 I
b10 4
b10 A
b1000001111 :
b1000001111 D
b101001 3
b101001 C
b101001 E
1%
#84
0%
#85
b11111111 ;
b11111111 @
b11111111 L
b11111111 N
b11111111 6
b11111111 >
b11111111 K
10
02
b11111111 9
b11111111 I
b11 4
b11 A
b1111111111 :
b1111111111 D
b101010 3
b101010 C
b101010 E
1%
#86
b11111111 "
b11111111 /
b11111111 F
b11111111 J
b11111111 O
0%
#87
b11110000 ;
b11110000 @
b11110000 L
b11110000 N
05
b100 <
b100 =
b100 B
b0 9
b0 I
b10110 4
b10110 A
b1011000000000 :
b1011000000000 D
b101011 3
b101011 C
b101011 E
1%
#88
b11110000 6
b11110000 >
b11110000 K
b11110000 "
b11110000 /
b11110000 F
b11110000 J
b11110000 O
0%
#89
b11001010 ;
b11001010 @
b11001010 L
b11001010 N
b11001010 6
b11001010 >
b11001010 K
00
12
15
b1001 <
b1001 =
b1001 B
b11001010 9
b11001010 I
b10 4
b10 A
b1011001010 :
b1011001010 D
b101100 3
b101100 C
b101100 E
1%
#90
b11001010 8
b11001010 ?
b11001010 H
b11001010 !
b11001010 1
b11001010 G
b11001010 M
0%
#91
b10101110 ;
b10101110 @
b10101110 L
b10101110 N
b10101110 6
b10101110 >
b10101110 K
10
02
b10101110 9
b10101110 I
b11 4
b11 A
b1110101110 :
b1110101110 D
b101101 3
b101101 C
b101101 E
1%
#92
b10101110 "
b10101110 /
b10101110 F
b10101110 J
b10101110 O
0%
#93
b1100100 ;
b1100100 @
b1100100 L
b1100100 N
00
12
05
b101 <
b101 =
b101 B
b0 9
b0 I
b11000 4
b11000 A
b1100000000000 :
b1100000000000 D
b101110 3
b101110 C
b101110 E
1%
#94
b11001010 ;
b11001010 @
b11001010 L
b11001010 N
b1100100 8
b1100100 ?
b1100100 H
b1100100 !
b1100100 1
b1100100 G
b1100100 M
0%
#95
b101111 3
b101111 C
b101111 E
1%
#96
b1100100 ;
b1100100 @
b1100100 L
b1100100 N
b11001010 8
b11001010 ?
b11001010 H
b11001010 !
b11001010 1
b11001010 G
b11001010 M
0%
#97
b11110000 ;
b11110000 @
b11110000 L
b11110000 N
b11110000 6
b11110000 >
b11110000 K
15
b1001 <
b1001 =
b1001 B
b11110000 9
b11110000 I
b10 4
b10 A
b1011110000 :
b1011110000 D
b110000 3
b110000 C
b110000 E
1%
#98
b11110000 8
b11110000 ?
b11110000 H
b11110000 !
b11110000 1
b11110000 G
b11110000 M
0%
#99
b10101010 ;
b10101010 @
b10101010 L
b10101010 N
b10101010 6
b10101010 >
b10101010 K
10
02
b10101010 9
b10101010 I
b11 4
b11 A
b1110101010 :
b1110101010 D
b110001 3
b110001 C
b110001 E
1%
#100
b10101010 "
b10101010 /
b10101010 F
b10101010 J
b10101010 O
0%
#101
b1011010 ;
b1011010 @
b1011010 L
b1011010 N
05
b101 <
b101 =
b101 B
b0 9
b0 I
b11001 4
b11001 A
b1100100000000 :
b1100100000000 D
b110010 3
b110010 C
b110010 E
1%
#102
b10101010 ;
b10101010 @
b10101010 L
b10101010 N
b1011010 6
b1011010 >
b1011010 K
b1011010 "
b1011010 /
b1011010 F
b1011010 J
b1011010 O
0%
#103
b111100 ;
b111100 @
b111100 L
b111100 N
b111100 6
b111100 >
b111100 K
00
12
15
b1001 <
b1001 =
b1001 B
b111100 9
b111100 I
b10 4
b10 A
b1000111100 :
b1000111100 D
b110011 3
b110011 C
b110011 E
1%
#104
b111100 8
b111100 ?
b111100 H
b111100 !
b111100 1
b111100 G
b111100 M
0%
#105
b11000011 ;
b11000011 @
b11000011 L
b11000011 N
b11111111 6
b11111111 >
b11111111 K
b101 <
b101 =
b101 B
b11111111 9
b11111111 I
b11010 4
b11010 A
b1101011111111 :
b1101011111111 D
b110100 3
b110100 C
b110100 E
1%
#106
b111100 ;
b111100 @
b111100 L
b111100 N
b11000011 8
b11000011 ?
b11000011 H
b11000011 !
b11000011 1
b11000011 G
b11000011 M
0%
#107
b10010010 ;
b10010010 @
b10010010 L
b10010010 N
b10010010 6
b10010010 >
b10010010 K
10
02
b1001 <
b1001 =
b1001 B
b10010010 9
b10010010 I
b11 4
b11 A
b1110010010 :
b1110010010 D
b110101 3
b110101 C
b110101 E
1%
#108
b10010010 "
b10010010 /
b10010010 F
b10010010 J
b10010010 O
0%
#109
b10010010 8
b10010010 ?
b10010010 H
b11110100 ;
b11110100 @
b11110100 L
b11110100 N
b1100110 6
b1100110 >
b1100110 K
17
b101 <
b101 =
b101 B
b1100110 9
b1100110 I
b11011 4
b11011 A
b1101101100110 :
b1101101100110 D
b110110 3
b110110 C
b110110 E
1%
#110
b10010010 ;
b10010010 @
b10010010 L
b10010010 N
b11110100 8
b11110100 ?
b11110100 H
b11110100 "
b11110100 /
b11110100 F
b11110100 J
b11110100 O
0%
#111
b11000011 8
b11000011 ?
b11000011 H
b101 ;
b101 @
b101 L
b101 N
b101 6
b101 >
b101 K
00
12
07
b1001 <
b1001 =
b1001 B
b101 9
b101 I
b10 4
b10 A
b1000000101 :
b1000000101 D
b110111 3
b110111 C
b110111 E
1%
#112
b101 8
b101 ?
b101 H
b101 !
b101 1
b101 G
b101 M
0%
#113
b1010 ;
b1010 @
b1010 L
b1010 N
b11110100 6
b11110100 >
b11110100 K
05
b110 <
b110 =
b110 B
b0 9
b0 I
b11100 4
b11100 A
b1110000000000 :
b1110000000000 D
b111000 3
b111000 C
b111000 E
1%
#114
b10100 ;
b10100 @
b10100 L
b10100 N
b1010 8
b1010 ?
b1010 H
b1010 !
b1010 1
b1010 G
b1010 M
0%
#115
b1100 ;
b1100 @
b1100 L
b1100 N
b1100 6
b1100 >
b1100 K
10
02
15
b1001 <
b1001 =
b1001 B
b1100 9
b1100 I
b11 4
b11 A
b1100001100 :
b1100001100 D
b111001 3
b111001 C
b111001 E
1%
#116
b1100 "
b1100 /
b1100 F
b1100 J
b1100 O
0%
#117
b1100 8
b1100 ?
b1100 H
b11000 ;
b11000 @
b11000 L
b11000 N
05
17
b110 <
b110 =
b110 B
b0 9
b0 I
b11111 4
b11111 A
b1111100000000 :
b1111100000000 D
b111010 3
b111010 C
b111010 E
1%
#118
b110000 ;
b110000 @
b110000 L
b110000 N
b11000 8
b11000 ?
b11000 H
b11000 6
b11000 >
b11000 K
b11000 "
b11000 /
b11000 F
b11000 J
b11000 O
0%
#119
b1010 8
b1010 ?
b1010 H
b1100011 ;
b1100011 @
b1100011 L
b1100011 N
b1100011 6
b1100011 >
b1100011 K
00
12
15
07
b1001 <
b1001 =
b1001 B
b1100011 9
b1100011 I
b10 4
b10 A
b1001100011 :
b1001100011 D
b111011 3
b111011 C
b111011 E
1%
#120
b1100011 8
b1100011 ?
b1100011 H
b1100011 !
b1100011 1
b1100011 G
b1100011 M
0%
#121
b10101 ;
b10101 @
b10101 L
b10101 N
b10101 6
b10101 >
b10101 K
10
02
b10101 9
b10101 I
b11 4
b11 A
b1100010101 :
b1100010101 D
b111100 3
b111100 C
b111100 E
1%
#122
b10101 "
b10101 /
b10101 F
b10101 J
b10101 O
0%
#123
b10101 8
b10101 ?
b10101 H
b101010 ;
b101010 @
b101010 L
b101010 N
00
12
05
17
b110 <
b110 =
b110 B
b0 9
b0 I
b11101 4
b11101 A
b1110100000000 :
b1110100000000 D
b111101 3
b111101 C
b111101 E
1%
#124
b101010 !
b101010 1
b101010 G
b101010 M
0%
#125
b101010 8
b101010 ?
b101010 H
b1011000 ;
b1011000 @
b1011000 L
b1011000 N
b1011000 6
b1011000 >
b1011000 K
10
02
15
07
b1001 <
b1001 =
b1001 B
b1011000 9
b1011000 I
b11 4
b11 A
b1101011000 :
b1101011000 D
b111110 3
b111110 C
b111110 E
1%
#126
b1011000 "
b1011000 /
b1011000 F
b1011000 J
b1011000 O
0%
#127
b11110 ;
b11110 @
b11110 L
b11110 N
b11110 6
b11110 >
b11110 K
00
12
b11110 9
b11110 I
b10 4
b10 A
b1000011110 :
b1000011110 D
b111111 3
b111111 C
b111111 E
1%
#128
b11110 8
b11110 ?
b11110 H
b11110 !
b11110 1
b11110 G
b11110 M
0%
#129
b111100 ;
b111100 @
b111100 L
b111100 N
b1011000 6
b1011000 >
b1011000 K
10
02
05
b110 <
b110 =
b110 B
b0 9
b0 I
b11110 4
b11110 A
b1111000000000 :
b1111000000000 D
b1000000 3
b1000000 C
b1000000 E
1%
#130
b111100 6
b111100 >
b111100 K
b111100 "
b111100 /
b111100 F
b111100 J
b111100 O
0%
#131
b0 ;
b0 @
b0 L
b0 N
b0 6
b0 >
b0 K
15
b1001 <
b1001 =
b1001 B
b11 4
b11 A
b1100000000 :
b1100000000 D
b1000001 3
b1000001 C
b1000001 E
1%
#132
b0 "
b0 /
b0 F
b0 J
b0 O
0%
#133
b11000000 ;
b11000000 @
b11000000 L
b11000000 N
b11000000 6
b11000000 >
b11000000 K
00
12
b11000000 9
b11000000 I
b10 4
b10 A
b1011000000 :
b1011000000 D
b1000010 3
b1000010 C
b1000010 E
1%
#134
b11000000 8
b11000000 ?
b11000000 H
b11000000 !
b11000000 1
b11000000 G
b11000000 M
0%
#135
b10000000 ;
b10000000 @
b10000000 L
b10000000 N
b0 6
b0 >
b0 K
10
02
05
b110 <
b110 =
b110 B
b0 9
b0 I
b11110 4
b11110 A
b1111000000000 :
b1111000000000 D
b1000011 3
b1000011 C
b1000011 E
1%
#136
b10000000 6
b10000000 >
b10000000 K
b10000000 "
b10000000 /
b10000000 F
b10000000 J
b10000000 O
0%
#137
b1010 ;
b1010 @
b1010 L
b1010 N
b1010 6
b1010 >
b1010 K
00
12
15
b1001 <
b1001 =
b1001 B
b1010 9
b1010 I
b10 4
b10 A
b1000001010 :
b1000001010 D
b1000100 3
b1000100 C
b1000100 E
1%
#138
b1010 8
b1010 ?
b1010 H
b1010 !
b1010 1
b1010 G
b1010 M
0%
#139
b101 ;
b101 @
b101 L
b101 N
b10000000 6
b10000000 >
b10000000 K
05
b111 <
b111 =
b111 B
b0 9
b0 I
b100000 4
b100000 A
b10000000000000 :
b10000000000000 D
b1000101 3
b1000101 C
b1000101 E
1%
#140
b10 ;
b10 @
b10 L
b10 N
b101 8
b101 ?
b101 H
b101 !
b101 1
b101 G
b101 M
0%
#141
b11000 ;
b11000 @
b11000 L
b11000 N
b11000 6
b11000 >
b11000 K
10
02
15
b1001 <
b1001 =
b1001 B
b11000 9
b11000 I
b11 4
b11 A
b1100011000 :
b1100011000 D
b1000110 3
b1000110 C
b1000110 E
1%
#142
b11000 "
b11000 /
b11000 F
b11000 J
b11000 O
0%
#143
b11000 8
b11000 ?
b11000 H
b1100 ;
b1100 @
b1100 L
b1100 N
05
17
b111 <
b111 =
b111 B
b0 9
b0 I
b100011 4
b100011 A
b10001100000000 :
b10001100000000 D
b1000111 3
b1000111 C
b1000111 E
1%
#144
b110 ;
b110 @
b110 L
b110 N
b1100 8
b1100 ?
b1100 H
b1100 6
b1100 >
b1100 K
b1100 "
b1100 /
b1100 F
b1100 J
b1100 O
0%
#145
b101 8
b101 ?
b101 H
b1100011 ;
b1100011 @
b1100011 L
b1100011 N
b1100011 6
b1100011 >
b1100011 K
00
12
15
07
b1001 <
b1001 =
b1001 B
b1100011 9
b1100011 I
b10 4
b10 A
b1001100011 :
b1001100011 D
b1001000 3
b1001000 C
b1001000 E
1%
#146
b1100011 8
b1100011 ?
b1100011 H
b1100011 !
b1100011 1
b1100011 G
b1100011 M
0%
#147
b101010 ;
b101010 @
b101010 L
b101010 N
b101010 6
b101010 >
b101010 K
10
02
b101010 9
b101010 I
b11 4
b11 A
b1100101010 :
b1100101010 D
b1001001 3
b1001001 C
b1001001 E
1%
#148
b101010 "
b101010 /
b101010 F
b101010 J
b101010 O
0%
#149
b101010 8
b101010 ?
b101010 H
b10101 ;
b10101 @
b10101 L
b10101 N
00
12
05
17
b111 <
b111 =
b111 B
b0 9
b0 I
b100001 4
b100001 A
b10000100000000 :
b10000100000000 D
b1001010 3
b1001010 C
b1001010 E
1%
#150
b10101 !
b10101 1
b10101 G
b10101 M
0%
