out/dump.vcd
$date
	Wed Oct  8 12:55:23 2025
$end
$version
	Icarus Verilog
$end
$timescale
	1s
$end
$scope module test $end
$var wire 8 ! regA_out [7:0] $end
$var wire 8 " regB_out [7:0] $end
$var reg 1 # add_a_dir_test_failed $end
$var reg 1 $ and_a_b_ind_test_failed $end
$var reg 1 % clk $end
$var reg 1 & for_loop_test_failed $end
$var reg 1 ' inc_dir_test_failed $end
$var reg 1 ( jle_equal_test_failed $end
$var reg 1 ) mem_sequence_test_failed $end
$var reg 1 * not_b_ind_test_failed $end
$var reg 1 + or_b_dir_test_failed $end
$var reg 1 , rst_b_ind_test_failed $end
$var reg 1 - shl_dir_b_test_failed $end
$var reg 1 . shr_b_ind_test_failed $end
$var reg 1 / sub_dir_test_failed $end
$var reg 1 0 xor_a_dir_test_failed $end
$scope module Comp $end
$var wire 1 % clk $end
$var wire 8 1 regB_out_bus [7:0] $end
$var wire 1 2 regB_load $end
$var wire 8 3 regA_out_bus [7:0] $end
$var wire 1 4 regA_load $end
$var wire 8 5 pc_out_bus [7:0] $end
$var wire 7 6 opcode [6:0] $end
$var wire 2 7 muxB_sel [1:0] $end
$var wire 8 8 muxB_out_bus [7:0] $end
$var wire 1 9 muxA_sel $end
$var wire 8 : muxA_out_bus [7:0] $end
$var wire 1 ; mem_write $end
$var wire 8 < mem_data_out [7:0] $end
$var wire 8 = mem_address [7:0] $end
$var wire 8 > literal [7:0] $end
$var wire 4 ? jump_cond [3:0] $end
$var wire 1 @ is_jump $end
$var wire 15 A im_out_bus [14:0] $end
$var wire 1 B flags_write $end
$var wire 8 C alu_out_bus [7:0] $end
$var wire 4 D alu_op [3:0] $end
$var wire 1 E addr_sel $end
$scope module ALU $end
$var wire 4 F s [3:0] $end
$var wire 8 G b [7:0] $end
$var wire 8 H a [7:0] $end
$var reg 8 I out [7:0] $end
$upscope $end
$scope module CU $end
$var wire 7 J opcode [6:0] $end
$var reg 1 E addr_sel $end
$var reg 4 K alu_op [3:0] $end
$var reg 1 B flags_write $end
$var reg 1 @ is_jump $end
$var reg 4 L jump_cond [3:0] $end
$var reg 1 ; mem_write $end
$var reg 1 9 muxA_sel $end
$var reg 2 M muxB_sel [1:0] $end
$var reg 1 4 regA_load $end
$var reg 1 2 regB_load $end
$upscope $end
$scope module DM $end
$var wire 1 % clk $end
$var wire 1 ; write_enable $end
$var wire 8 N data_in [7:0] $end
$var wire 8 O address [7:0] $end
$var reg 8 P data_out [7:0] $end
$var integer 32 Q i [31:0] $end
$upscope $end
$scope module IM $end
$var wire 8 R address [7:0] $end
$var reg 15 S out [14:0] $end
$upscope $end
$scope module PC $end
$var wire 1 % clk $end
$var reg 8 T pc [7:0] $end
$upscope $end
$scope module addr_mux $end
$var wire 8 U literal [7:0] $end
$var wire 1 E sel $end
$var wire 8 V regB [7:0] $end
$var reg 8 W address [7:0] $end
$upscope $end
$scope module muxA_inst $end
$var wire 1 9 sel $end
$var wire 8 X regB [7:0] $end
$var wire 8 Y regA [7:0] $end
$var reg 8 Z out [7:0] $end
$upscope $end
$scope module muxB_inst $end
$var wire 8 [ literal [7:0] $end
$var wire 8 \ mem_data [7:0] $end
$var wire 2 ] sel [1:0] $end
$var wire 8 ^ regB [7:0] $end
$var reg 8 _ out [7:0] $end
$upscope $end
$scope module regA $end
$var wire 1 % clk $end
$var wire 8 ` data [7:0] $end
$var wire 1 4 load $end
$var reg 8 a out [7:0] $end
$upscope $end
$scope module regB $end
$var wire 1 % clk $end
$var wire 8 b data [7:0] $end
$var wire 1 2 load $end
$var reg 8 c out [7:0] $end
$upscope $end
$upscope $end
$upscope $end
$enddefinitions $end
$comment Show the parameter values. $end
$dumpall
$end
#0
$dumpvars
b0 c
b1100011 b
b0 a
b1100011 `
b1100011 _
b0 ^
b1 ]
b0 \
b1100011 [
b0 Z
b0 Y
b0 X
b1100011 W
b0 V
b1100011 U
b0 T
b1101100011 S
b0 R
b100000000 Q
b0 P
b1100011 O
b0 N
b1 M
b0 L
b1001 K
b11 J
b1100011 I
b0 H
b1100011 G
b1001 F
0E
b1001 D
b1100011 C
0B
b1101100011 A
0@
b0 ?
b1100011 >
b1100011 =
b0 <
0;
b0 :
09
b1100011 8
b1 7
b11 6
b0 5
04
b0 3
12
b0 1
00
0/
0.
0-
0,
0+
0*
0)
0(
0'
0&
0%
0$
0#
b0 "
b0 !
$end
#1
b1100011 :
b1100011 H
b1100011 N
b1100011 Z
b110010 =
b110010 O
b110010 W
1;
02
b0 7
b0 M
b0 ]
19
b110010 >
b110010 U
b110010 [
b101000 6
b101000 J
b10100000110010 A
b10100000110010 S
b1 5
b1 R
b1 T
b1100011 "
b1100011 1
b1100011 V
b1100011 X
b1100011 ^
b1100011 c
1%
#2
0%
#3
b0 :
b0 H
b0 N
b0 Z
0;
14
b10 7
b10 M
b10 ]
09
b100101 6
b100101 J
b10010100110010 A
b10010100110010 S
b10 5
b10 R
b10 T
b1100011 <
b1100011 P
b1100011 \
1%
#4
0%
#5
b0 <
b0 P
b0 \
b1111011 C
b1111011 I
b1111011 `
b1111011 b
b1111011 =
b1111011 O
b1111011 W
b1111011 8
b1111011 G
b1111011 _
b1 7
b1 M
b1 ]
b1111011 >
b1111011 U
b1111011 [
b10 6
b10 J
b1001111011 A
b1001111011 S
b1100011 :
b1100011 H
b1100011 N
b1100011 Z
b11 5
b11 R
b11 T
b1100011 !
b1100011 3
b1100011 Y
b1100011 a
1%
#6
0%
#7
b10101110 C
b10101110 I
b10101110 `
b10101110 b
b110011 =
b110011 O
b110011 W
b110011 8
b110011 G
b110011 _
1;
04
b0 D
b0 F
b0 K
b110011 >
b110011 U
b110011 [
b100111 6
b100111 J
b1111011 :
b1111011 H
b1111011 N
b1111011 Z
b10011100110011 A
b10011100110011 S
b1111011 !
b1111011 3
b1111011 Y
b1111011 a
b100 5
b100 R
b100 T
1%
#8
0%
#9
b1111011 8
b1111011 G
b1111011 _
b1111011 C
b1111011 I
b1111011 `
b1111011 b
0;
12
b10 7
b10 M
b10 ]
b1001 D
b1001 F
b1001 K
b100110 6
b100110 J
b10011000110011 A
b10011000110011 S
b101 5
b101 R
b101 T
b1111011 <
b1111011 P
b1111011 \
1%
#10
0%
#11
b0 <
b0 P
b0 \
b11111111 C
b11111111 I
b11111111 `
b11111111 b
b11111111 =
b11111111 O
b11111111 W
b11111111 8
b11111111 G
b11111111 _
02
14
b1 7
b1 M
b1 ]
b11111111 >
b11111111 U
b11111111 [
b10 6
b10 J
b1011111111 A
b1011111111 S
b1111011 "
b1111011 1
b1111011 V
b1111011 X
b1111011 ^
b1111011 c
b110 5
b110 R
b110 T
1%
#12
0%
#13
b1100011 <
b1100011 P
b1100011 \
b110001 C
b110001 I
b110001 `
b110001 b
b110010 =
b110010 O
b110010 W
b110010 8
b110010 G
b110010 _
1;
04
b0 D
b0 F
b0 K
b110010 >
b110010 U
b110010 [
b100111 6
b100111 J
b10011100110010 A
b10011100110010 S
b11111111 :
b11111111 H
b11111111 N
b11111111 Z
b111 5
b111 R
b111 T
b11111111 !
b11111111 3
b11111111 Y
b11111111 a
1%
#14
0%
#15
b0 C
b0 I
b0 `
b0 b
b0 =
b0 O
b0 W
b0 8
b0 G
b0 _
0;
14
b1001 D
b1001 F
b1001 K
b0 >
b0 U
b0 [
b10 6
b10 J
b1000000000 A
b1000000000 S
b1000 5
b1000 R
b1000 T
b0 <
b0 P
b0 \
1%
#16
0%
#17
b11111111 C
b11111111 I
b11111111 `
b11111111 b
b11111111 8
b11111111 G
b11111111 _
b11111111 <
b11111111 P
b11111111 \
b110010 =
b110010 O
b110010 W
b10 7
b10 M
b10 ]
b110010 >
b110010 U
b110010 [
b100101 6
b100101 J
b10010100110010 A
b10010100110010 S
b0 :
b0 H
b0 N
b0 Z
b1001 5
b1001 R
b1001 T
b0 !
b0 3
b0 Y
b0 a
1%
#18
0%
#19
b0 <
b0 P
b0 \
b1100100 C
b1100100 I
b1100100 `
b1100100 b
b1100100 =
b1100100 O
b1100100 W
b1100100 8
b1100100 G
b1100100 _
b1 7
b1 M
b1 ]
b1100100 >
b1100100 U
b1100100 [
b10 6
b10 J
b11111111 :
b11111111 H
b11111111 N
b11111111 Z
b1001100100 A
b1001100100 S
b11111111 !
b11111111 3
b11111111 Y
b11111111 a
b1010 5
b1010 R
b1010 T
1%
#20
0%
#21
b11111111 <
b11111111 P
b11111111 \
b110010 C
b110010 I
b110010 `
b110010 b
b110010 =
b110010 O
b110010 W
b110010 8
b110010 G
b110010 _
12
04
b110010 >
b110010 U
b110010 [
b11 6
b11 J
b1100110010 A
b1100110010 S
b1100100 :
b1100100 H
b1100100 N
b1100100 Z
b1011 5
b1011 R
b1011 T
b1100100 !
b1100100 3
b1100100 Y
b1100100 a
1%
#22
0%
#23
b0 <
b0 P
b0 \
b110010 :
b110010 H
b110010 N
b110010 Z
b1111000 =
b1111000 O
b1111000 W
1;
02
b0 7
b0 M
b0 ]
19
b1111000 >
b1111000 U
b1111000 [
b101000 6
b101000 J
b10100001111000 A
b10100001111000 S
b110010 "
b110010 1
b110010 V
b110010 X
b110010 ^
b110010 c
b1100 5
b1100 R
b1100 T
1%
#24
0%
#25
b1100100 :
b1100100 H
b1100100 N
b1100100 Z
b10010110 C
b10010110 I
b10010110 `
b10010110 b
0;
14
b10 7
b10 M
b10 ]
09
b0 D
b0 F
b0 K
b101100 6
b101100 J
b10110001111000 A
b10110001111000 S
b1101 5
b1101 R
b1101 T
b110010 <
b110010 P
b110010 \
1%
#26
0%
#27
b0 <
b0 P
b0 \
b1100100 =
b1100100 O
b1100100 W
b1100100 8
b1100100 G
b1100100 _
b1 7
b1 M
b1 ]
b1001 D
b1001 F
b1001 K
b1100100 C
b1100100 I
b1100100 `
b1100100 b
b1100100 >
b1100100 U
b1100100 [
b10 6
b10 J
b10010110 :
b10010110 H
b10010110 N
b10010110 Z
b1001100100 A
b1001100100 S
b10010110 !
b10010110 3
b10010110 Y
b10010110 a
b1110 5
b1110 R
b1110 T
1%
#28
0%
#29
b101000 C
b101000 I
b101000 `
b101000 b
b101000 =
b101000 O
b101000 W
b101000 8
b101000 G
b101000 _
12
04
b101000 >
b101000 U
b101000 [
b11 6
b11 J
b1100101000 A
b1100101000 S
b1100100 :
b1100100 H
b1100100 N
b1100100 Z
b1111 5
b1111 R
b1111 T
b1100100 !
b1100100 3
b1100100 Y
b1100100 a
1%
#30
0%
#31
b111100 C
b111100 I
b111100 `
b111100 b
b11001000 =
b11001000 O
b11001000 W
1;
02
b0 7
b0 M
b0 ]
b1 D
b1 F
b1 K
b11001000 >
b11001000 U
b11001000 [
b110011 6
b110011 J
b11001111001000 A
b11001111001000 S
b101000 "
b101000 1
b101000 V
b101000 X
b101000 ^
b101000 c
b10000 5
b10000 R
b10000 T
1%
#32
0%
#33
b10101010 C
b10101010 I
b10101010 `
b10101010 b
b10101010 =
b10101010 O
b10101010 W
b10101010 8
b10101010 G
b10101010 _
0;
14
b1 7
b1 M
b1 ]
b1001 D
b1001 F
b1001 K
b10101010 >
b10101010 U
b10101010 [
b10 6
b10 J
b1010101010 A
b1010101010 S
b10001 5
b10001 R
b10001 T
b0 <
b0 P
b0 \
1%
#34
0%
1/
#35
b1000000 C
b1000000 I
b1000000 `
b1000000 b
b10010110 =
b10010110 O
b10010110 W
b10010110 8
b10010110 G
b10010110 _
1;
04
b0 D
b0 F
b0 K
b10010110 >
b10010110 U
b10010110 [
b100111 6
b100111 J
b10101010 :
b10101010 H
b10101010 N
b10101010 Z
b10011110010110 A
b10011110010110 S
b10101010 !
b10101010 3
b10101010 Y
b10101010 a
b10010 5
b10010 R
b10010 T
1%
#36
0%
#37
b11001100 C
b11001100 I
b11001100 `
b11001100 b
b11001100 =
b11001100 O
b11001100 W
b11001100 8
b11001100 G
b11001100 _
0;
14
b1001 D
b1001 F
b1001 K
b11001100 >
b11001100 U
b11001100 [
b10 6
b10 J
b1011001100 A
b1011001100 S
b10011 5
b10011 R
b10011 T
b0 <
b0 P
b0 \
1%
#38
0%
#39
b10101010 <
b10101010 P
b10101010 \
b10010110 C
b10010110 I
b10010110 `
b10010110 b
b10010110 =
b10010110 O
b10010110 W
b10010110 8
b10010110 G
b10010110 _
12
04
b10010110 >
b10010110 U
b10010110 [
b11 6
b11 J
b11001100 :
b11001100 H
b11001100 N
b11001100 Z
b1110010110 A
b1110010110 S
b11001100 !
b11001100 3
b11001100 Y
b11001100 a
b10100 5
b10100 R
b10100 T
1%
#40
0%
#41
b10001000 C
b10001000 I
b10001000 `
b10001000 b
b10101010 8
b10101010 G
b10101010 _
1E
02
14
b10 7
b10 M
b10 ]
b10 D
b10 F
b10 K
b0 >
b0 U
b0 [
b110110 6
b110110 J
b11011000000000 A
b11011000000000 S
b10101 5
b10101 R
b10101 T
b10010110 "
b10010110 1
b10010110 V
b10010110 X
b10010110 ^
b10010110 c
1%
#42
0%
#43
b0 <
b0 P
b0 \
b11000011 C
b11000011 I
b11000011 `
b11000011 b
b11000011 =
b11000011 O
b11000011 W
b11000011 8
b11000011 G
b11000011 _
0E
12
04
b1 7
b1 M
b1 ]
b1001 D
b1001 F
b1001 K
b11000011 >
b11000011 U
b11000011 [
b11 6
b11 J
b10001000 :
b10001000 H
b10001000 N
b10001000 Z
b1111000011 A
b1111000011 S
b10001000 !
b10001000 3
b10001000 Y
b10001000 a
b10110 5
b10110 R
b10110 T
1%
#44
0%
#45
b1010101 C
b1010101 I
b1010101 `
b1010101 b
b1010101 =
b1010101 O
b1010101 W
b1010101 8
b1010101 G
b1010101 _
02
14
b1010101 >
b1010101 U
b1010101 [
b10 6
b10 J
b1001010101 A
b1001010101 S
b10111 5
b10111 R
b10111 T
b11000011 "
b11000011 1
b11000011 V
b11000011 X
b11000011 ^
b11000011 c
1%
#46
0%
#47
b1100101 C
b1100101 I
b1100101 `
b1100101 b
b10000 =
b10000 O
b10000 W
b10000 8
b10000 G
b10000 _
1;
04
b0 D
b0 F
b0 K
b10000 >
b10000 U
b10000 [
b100111 6
b100111 J
b1010101 :
b1010101 H
b1010101 N
b1010101 Z
b10011100010000 A
b10011100010000 S
b1010101 !
b1010101 3
b1010101 Y
b1010101 a
b11000 5
b11000 R
b11000 T
1%
#48
0%
#49
b1010101 8
b1010101 G
b1010101 _
b11000011 :
b11000011 H
b11000011 N
b11000011 Z
b11010111 C
b11010111 I
b11010111 `
b11010111 b
0;
12
b10 7
b10 M
b10 ]
19
b11 D
b11 F
b11 K
b111001 6
b111001 J
b11100100010000 A
b11100100010000 S
b11001 5
b11001 R
b11001 T
b1010101 <
b1010101 P
b1010101 \
1%
#50
0%
#51
b0 <
b0 P
b0 \
b10100101 C
b10100101 I
b10100101 `
b10100101 b
b10100101 =
b10100101 O
b10100101 W
b10100101 8
b10100101 G
b10100101 _
02
14
b1 7
b1 M
b1 ]
09
b1001 D
b1001 F
b1001 K
b10100101 >
b10100101 U
b10100101 [
b10 6
b10 J
b1010101 :
b1010101 H
b1010101 N
b1010101 Z
b1010100101 A
b1010100101 S
b11010111 "
b11010111 1
b11010111 V
b11010111 X
b11010111 ^
b11010111 c
b11010 5
b11010 R
b11010 T
1%
#52
0%
#53
b11010010 C
b11010010 I
b11010010 `
b11010010 b
b11010010 =
b11010010 O
b11010010 W
b11010010 8
b11010010 G
b11010010 _
12
04
b11010010 >
b11010010 U
b11010010 [
b11 6
b11 J
b1111010010 A
b1111010010 S
b10100101 :
b10100101 H
b10100101 N
b10100101 Z
b11011 5
b11011 R
b11011 T
b10100101 !
b10100101 3
b10100101 Y
b10100101 a
1%
#54
0%
#55
b1011010 C
b1011010 I
b1011010 `
b1011010 b
1E
1;
02
b0 7
b0 M
b0 ]
b100 D
b100 F
b100 K
b0 >
b0 U
b0 [
b111110 6
b111110 J
b11111000000000 A
b11111000000000 S
b11010010 "
b11010010 1
b11010010 V
b11010010 X
b11010010 ^
b11010010 c
b11100 5
b11100 R
b11100 T
1%
#56
0%
#57
b11001010 C
b11001010 I
b11001010 `
b11001010 b
b11001010 =
b11001010 O
b11001010 W
b11001010 8
b11001010 G
b11001010 _
0E
0;
14
b1 7
b1 M
b1 ]
b1001 D
b1001 F
b1001 K
b11001010 >
b11001010 U
b11001010 [
b10 6
b10 J
b1011001010 A
b1011001010 S
b11101 5
b11101 R
b11101 T
b0 <
b0 P
b0 \
1%
#58
0%
1*
#59
b10101100 C
b10101100 I
b10101100 `
b10101100 b
b10101100 =
b10101100 O
b10101100 W
b10101100 8
b10101100 G
b10101100 _
12
04
b10101100 >
b10101100 U
b10101100 [
b11 6
b11 J
b11001010 :
b11001010 H
b11001010 N
b11001010 Z
b1110101100 A
b1110101100 S
b11001010 !
b11001010 3
b11001010 Y
b11001010 a
b11110 5
b11110 R
b11110 T
1%
#60
0%
#61
b10101100 :
b10101100 H
b10101100 N
b10101100 Z
b11011100 =
b11011100 O
b11011100 W
1;
02
b0 7
b0 M
b0 ]
19
b11011100 >
b11011100 U
b11011100 [
b101000 6
b101000 J
b10100011011100 A
b10100011011100 S
b11111 5
b11111 R
b11111 T
b10101100 "
b10101100 1
b10101100 V
b10101100 X
b10101100 ^
b10101100 c
1%
#62
0%
#63
b11001010 :
b11001010 H
b11001010 N
b11001010 Z
b1100110 C
b1100110 I
b1100110 `
b1100110 b
0;
14
b10 7
b10 M
b10 ]
09
b101 D
b101 F
b101 K
b111111 6
b111111 J
b11111111011100 A
b11111111011100 S
b100000 5
b100000 R
b100000 T
b10101100 <
b10101100 P
b10101100 \
1%
#64
0%
#65
b0 <
b0 P
b0 \
b1010101 =
b1010101 O
b1010101 W
b1010101 8
b1010101 G
b1010101 _
12
04
b1 7
b1 M
b1 ]
b1001 D
b1001 F
b1001 K
b1010101 >
b1010101 U
b1010101 [
b11 6
b11 J
b1010101 C
b1010101 I
b1010101 `
b1010101 b
b1101010101 A
b1101010101 S
b1100110 :
b1100110 H
b1100110 N
b1100110 Z
b100001 5
b100001 R
b100001 T
b1100110 !
b1100110 3
b1100110 Y
b1100110 a
1%
#66
0%
#67
b1010101 :
b1010101 H
b1010101 N
b1010101 Z
b10101010 C
b10101010 I
b10101010 `
b10101010 b
b11100110 =
b11100110 O
b11100110 W
1;
02
b0 7
b0 M
b0 ]
19
b110 D
b110 F
b110 K
b11100110 >
b11100110 U
b11100110 [
b1000100 6
b1000100 J
b100010011100110 A
b100010011100110 S
b1010101 "
b1010101 1
b1010101 V
b1010101 X
b1010101 ^
b1010101 c
b100010 5
b100010 R
b100010 T
1%
#68
0%
#69
b1100110 :
b1100110 H
b1100110 N
b1100110 Z
b11010100 C
b11010100 I
b11010100 `
b11010100 b
b11010100 =
b11010100 O
b11010100 W
b11010100 8
b11010100 G
b11010100 _
0;
14
b1 7
b1 M
b1 ]
09
b1001 D
b1001 F
b1001 K
b11010100 >
b11010100 U
b11010100 [
b10 6
b10 J
b1011010100 A
b1011010100 S
b100011 5
b100011 R
b100011 T
b0 <
b0 P
b0 \
1%
#70
0%
1-
#71
b11110000 C
b11110000 I
b11110000 `
b11110000 b
b11110000 =
b11110000 O
b11110000 W
b11110000 8
b11110000 G
b11110000 _
12
04
b11110000 >
b11110000 U
b11110000 [
b11 6
b11 J
b11010100 :
b11010100 H
b11010100 N
b11010100 Z
b1111110000 A
b1111110000 S
b11010100 !
b11010100 3
b11010100 Y
b11010100 a
b100100 5
b100100 R
b100100 T
1%
#72
0%
#73
b1101010 C
b1101010 I
b1101010 `
b1101010 b
1E
1;
02
b0 7
b0 M
b0 ]
b111 D
b111 F
b111 K
b0 >
b0 U
b0 [
b1001000 6
b1001000 J
b100100000000000 A
b100100000000000 S
b100101 5
b100101 R
b100101 T
b11110000 "
b11110000 1
b11110000 V
b11110000 X
b11110000 ^
b11110000 c
1%
#74
0%
#75
b1001101 C
b1001101 I
b1001101 `
b1001101 b
b1001101 =
b1001101 O
b1001101 W
b1001101 8
b1001101 G
b1001101 _
0E
0;
14
b1 7
b1 M
b1 ]
b1001 D
b1001 F
b1001 K
b1001101 >
b1001101 U
b1001101 [
b10 6
b10 J
b1001001101 A
b1001001101 S
b100110 5
b100110 R
b100110 T
b0 <
b0 P
b0 \
1%
#76
0%
1.
#77
b1000111 C
b1000111 I
b1000111 `
b1000111 b
b11111010 =
b11111010 O
b11111010 W
b11111010 8
b11111010 G
b11111010 _
1;
04
b0 D
b0 F
b0 K
b11111010 >
b11111010 U
b11111010 [
b100111 6
b100111 J
b10011111111010 A
b10011111111010 S
b1001101 :
b1001101 H
b1001101 N
b1001101 Z
b100111 5
b100111 R
b100111 T
b1001101 !
b1001101 3
b1001101 Y
b1001101 a
1%
#78
0%
#79
b1001101 8
b1001101 G
b1001101 _
b1001110 C
b1001110 I
b1001110 `
b1001110 b
b10 7
b10 M
b10 ]
b1000 D
b1000 F
b1000 K
b1001001 6
b1001001 J
b100100111111010 A
b100100111111010 S
b101000 5
b101000 R
b101000 T
b1001101 <
b1001101 P
b1001101 \
1%
#80
0%
#81
b0 <
b0 P
b0 \
b11111111 C
b11111111 I
b11111111 `
b11111111 b
b11111111 =
b11111111 O
b11111111 W
b11111111 8
b11111111 G
b11111111 _
0;
14
b1 7
b1 M
b1 ]
b1001 D
b1001 F
b1001 K
b11111111 >
b11111111 U
b11111111 [
b10 6
b10 J
b1011111111 A
b1011111111 S
b101001 5
b101001 R
b101001 T
1%
#82
0%
1'
#83
b11111010 C
b11111010 I
b11111010 `
b11111010 b
b11111011 =
b11111011 O
b11111011 W
b11111011 8
b11111011 G
b11111011 _
1;
04
b0 D
b0 F
b0 K
b11111011 >
b11111011 U
b11111011 [
b100111 6
b100111 J
b11111111 :
b11111111 H
b11111111 N
b11111111 Z
b10011111111011 A
b10011111111011 S
b11111111 !
b11111111 3
b11111111 Y
b11111111 a
b101010 5
b101010 R
b101010 T
1%
#84
0%
#85
b11111111 8
b11111111 G
b11111111 _
b0 C
b0 I
b0 `
b0 b
b10 7
b10 M
b10 ]
b1000 D
b1000 F
b1000 K
b1001001 6
b1001001 J
b100100111111011 A
b100100111111011 S
b101011 5
b101011 R
b101011 T
b11111111 <
b11111111 P
b11111111 \
1%
#86
0%
#87
b0 <
b0 P
b0 \
b1111011 C
b1111011 I
b1111011 `
b1111011 b
b1111011 =
b1111011 O
b1111011 W
b1111011 8
b1111011 G
b1111011 _
0;
14
b1 7
b1 M
b1 ]
b1001 D
b1001 F
b1001 K
b1111011 >
b1111011 U
b1111011 [
b10 6
b10 J
b1001111011 A
b1001111011 S
b101100 5
b101100 R
b101100 T
1%
#88
0%
#89
b1111010 C
b1111010 I
b1111010 `
b1111010 b
b11111111 =
b11111111 O
b11111111 W
b11111111 8
b11111111 G
b11111111 _
1;
04
b0 D
b0 F
b0 K
b11111111 >
b11111111 U
b11111111 [
b100111 6
b100111 J
b10011111111111 A
b10011111111111 S
b1111011 :
b1111011 H
b1111011 N
b1111011 Z
b101101 5
b101101 R
b101101 T
b1111011 !
b1111011 3
b1111011 Y
b1111011 a
1%
#90
0%
#91
b11111111 C
b11111111 I
b11111111 `
b11111111 b
0;
12
b1001 D
b1001 F
b1001 K
b11 6
b11 J
b1111111111 A
b1111111111 S
b101110 5
b101110 R
b101110 T
b1111011 <
b1111011 P
b1111011 \
1%
#92
0%
#93
b1111011 C
b1111011 I
b1111011 `
b1111011 b
b0 8
b0 G
b0 _
1E
1;
02
b0 D
b0 F
b0 K
b0 >
b0 U
b0 [
b1001100 6
b1001100 J
b100110000000000 A
b100110000000000 S
b101111 5
b101111 R
b101111 T
b11111111 "
b11111111 1
b11111111 V
b11111111 X
b11111111 ^
b11111111 c
1%
#94
0%
#95
b0 <
b0 P
b0 \
b10100 C
b10100 I
b10100 `
b10100 b
b10100 =
b10100 O
b10100 W
b10100 8
b10100 G
b10100 _
0E
0;
14
b1001 D
b1001 F
b1001 K
b10100 >
b10100 U
b10100 [
b10 6
b10 J
b1000010100 A
b1000010100 S
b110000 5
b110000 R
b110000 T
1%
#96
0%
1,
#97
b1100100 <
b1100100 P
b1100100 \
b11011100 C
b11011100 I
b11011100 `
b11011100 b
b11001000 =
b11001000 O
b11001000 W
b11001000 8
b11001000 G
b11001000 _
1;
04
b0 D
b0 F
b0 K
b11001000 >
b11001000 U
b11001000 [
b100111 6
b100111 J
b10011111001000 A
b10011111001000 S
b10100 :
b10100 H
b10100 N
b10100 Z
b110001 5
b110001 R
b110001 T
b10100 !
b10100 3
b10100 Y
b10100 a
1%
#98
0%
#99
b11001000 C
b11001000 I
b11001000 `
b11001000 b
0;
12
b1001 D
b1001 F
b1001 K
b11 6
b11 J
b1111001000 A
b1111001000 S
b110010 5
b110010 R
b110010 T
b10100 <
b10100 P
b10100 \
1%
#100
0%
#101
b0 <
b0 P
b0 \
b10100 C
b10100 I
b10100 `
b10100 b
b10100 =
b10100 O
b10100 W
b10100 8
b10100 G
b10100 _
02
14
b10100 >
b10100 U
b10100 [
b10 6
b10 J
b1000010100 A
b1000010100 S
b110011 5
b110011 R
b110011 T
b11001000 "
b11001000 1
b11001000 V
b11001000 X
b11001000 ^
b11001000 c
1%
#102
0%
#103
b11011100 C
b11011100 I
b11011100 `
b11011100 b
b0 =
b0 O
b0 W
b11001000 8
b11001000 G
b11001000 _
04
b0 7
b0 M
b0 ]
b0 D
b0 F
b0 K
b0 >
b0 U
b0 [
b1010010 6
b1010010 J
b101001000000000 A
b101001000000000 S
b110100 5
b110100 R
b110100 T
1%
#104
0%
#105
b111000 =
b111000 O
b111000 W
b111000 >
b111000 U
b111000 [
b1011001 6
b1011001 J
b101100100111000 A
b101100100111000 S
b110101 5
b110101 R
b110101 T
1%
#106
0%
#107
b10 C
b10 I
b10 `
b10 b
b10 =
b10 O
b10 W
b10 8
b10 G
b10 _
12
b1 7
b1 M
b1 ]
b1001 D
b1001 F
b1001 K
b10 >
b10 U
b10 [
b11 6
b11 J
b1100000010 A
b1100000010 S
b110110 5
b110110 R
b110110 T
1%
#108
0%
#109
b10110 C
b10110 I
b10110 `
b10110 b
b111001 =
b111001 O
b111001 W
02
b0 7
b0 M
b0 ]
b0 D
b0 F
b0 K
b111001 >
b111001 U
b111001 [
b1010000 6
b1010000 J
b101000000111001 A
b101000000111001 S
b110111 5
b110111 R
b110111 T
b10 "
b10 1
b10 V
b10 X
b10 ^
b10 c
1%
#110
0%
#111
b1 C
b1 I
b1 `
b1 b
b1 =
b1 O
b1 W
b1 8
b1 G
b1 _
12
b1 7
b1 M
b1 ]
b1001 D
b1001 F
b1001 K
b1 >
b1 U
b1 [
b11 6
b11 J
b1100000001 A
b1100000001 S
b111000 5
b111000 R
b111000 T
1%
#112
0%
#113
b1 :
b1 H
b1 N
b1 Z
b1100100 =
b1100100 O
b1100100 W
1;
02
b0 7
b0 M
b0 ]
19
b1100100 >
b1100100 U
b1100100 [
b101000 6
b101000 J
b10100001100100 A
b10100001100100 S
b111001 5
b111001 R
b111001 T
b1 "
b1 1
b1 V
b1 X
b1 ^
b1 c
1%
#114
0%
#115
b1100011 C
b1100011 I
b1100011 `
b1100011 b
b10100 :
b10100 H
b10100 N
b10100 Z
b1100011 =
b1100011 O
b1100011 W
b1100011 8
b1100011 G
b1100011 _
0;
14
b1 7
b1 M
b1 ]
09
b1100011 >
b1100011 U
b1100011 [
b10 6
b10 J
b1001100011 A
b1001100011 S
b111010 5
b111010 R
b111010 T
b0 <
b0 P
b0 \
1%
#116
0%
#117
b11 C
b11 I
b11 `
b11 b
b11 =
b11 O
b11 W
b11 8
b11 G
b11 _
12
04
b11 >
b11 U
b11 [
b11 6
b11 J
b1100000011 A
b1100000011 S
b1100011 :
b1100011 H
b1100011 N
b1100011 Z
b111011 5
b111011 R
b111011 T
b1100011 !
b1100011 3
b1100011 Y
b1100011 a
1%
#118
0%
#119
b1100110 C
b1100110 I
b1100110 `
b1100110 b
b0 =
b0 O
b0 W
02
b0 7
b0 M
b0 ]
b0 D
b0 F
b0 K
b0 >
b0 U
b0 [
b1001111 6
b1001111 J
b100111100000000 A
b100111100000000 S
b11 "
b11 1
b11 V
b11 X
b11 ^
b11 c
b111100 5
b111100 R
b111100 T
1%
#120
0%
#121
b111111 =
b111111 O
b111111 W
b111111 >
b111111 U
b111111 [
b1011000 6
b1011000 J
b101100000111111 A
b101100000111111 S
b111101 5
b111101 R
b111101 T
1%
#122
0%
#123
b1000010 =
b1000010 O
b1000010 W
1@
b1000010 >
b1000010 U
b1000010 [
b1010011 6
b1010011 J
b101001101000010 A
b101001101000010 S
b111110 5
b111110 R
b111110 T
1%
#124
0%
#125
b1100011 C
b1100011 I
b1100011 `
b1100011 b
b11 =
b11 O
b11 W
b0 8
b0 G
b0 _
0@
1E
1;
b1 7
b1 M
b1 ]
b0 >
b0 U
b0 [
b101011 6
b101011 J
b10101100000000 A
b10101100000000 S
b111111 5
b111111 R
b111111 T
1%
#126
0%
#127
b11 :
b11 H
b11 N
b11 Z
b10 C
b10 I
b10 `
b10 b
b1 =
b1 O
b1 W
b1 8
b1 G
b1 _
0E
0;
12
19
b1 D
b1 F
b1 K
b1 >
b1 U
b1 [
b1011 6
b1011 J
b101100000001 A
b101100000001 S
b1000000 5
b1000000 R
b1000000 T
b0 <
b0 P
b0 \
1%
#128
0%
#129
b111100 =
b111100 O
b111100 W
b10 8
b10 G
b10 _
1@
02
b0 7
b0 M
b0 ]
09
b0 D
b0 F
b0 K
b111100 >
b111100 U
b111100 [
b1010011 6
b1010011 J
b1100101 C
b1100101 I
b1100101 `
b1100101 b
b101001100111100 A
b101001100111100 S
b1100011 :
b1100011 H
b1100011 N
b1100011 Z
b1000001 5
b1000001 R
b1000001 T
b10 "
b10 1
b10 V
b10 X
b10 ^
b10 c
1%
#130
0%
