out/dump.vcd
$date
	Tue Oct  7 19:14:51 2025
$end
$version
	Icarus Verilog
$end
$timescale
	1s
$end
$scope module test $end
$var wire 8 ! regA_out [7:0] $end
$var wire 8 " regB_out [7:0] $end
$var reg 1 # add_test_failed $end
$var reg 1 $ and_test_failed $end
$var reg 1 % clk $end
$var reg 1 & inc_test_failed $end
$var reg 1 ' mov_test_failed $end
$var reg 1 ( not_test_failed $end
$var reg 1 ) or_test_failed $end
$var reg 1 * reg_mov_test_failed $end
$var reg 1 + shl_test_failed $end
$var reg 1 , shr_test_failed $end
$var reg 1 - sub_test_failed $end
$var reg 1 . xor_test_failed $end
$scope module Comp $end
$var wire 1 % clk $end
$var wire 8 / regB_out_bus [7:0] $end
$var wire 1 0 regB_load $end
$var wire 8 1 regA_out_bus [7:0] $end
$var wire 1 2 regA_load $end
$var wire 8 3 pc_out_bus [7:0] $end
$var wire 7 4 opcode [6:0] $end
$var wire 2 5 muxB_sel [1:0] $end
$var wire 8 6 muxB_out_bus [7:0] $end
$var wire 1 7 muxA_sel $end
$var wire 8 8 muxA_out_bus [7:0] $end
$var wire 1 9 mem_write $end
$var wire 8 : mem_data_out [7:0] $end
$var wire 8 ; mem_address [7:0] $end
$var wire 8 < literal [7:0] $end
$var wire 15 = im_out_bus [14:0] $end
$var wire 8 > alu_out_bus [7:0] $end
$var wire 4 ? alu_op [3:0] $end
$var wire 1 @ addr_sel $end
$scope module ALU $end
$var wire 4 A s [3:0] $end
$var wire 8 B b [7:0] $end
$var wire 8 C a [7:0] $end
$var reg 8 D out [7:0] $end
$upscope $end
$scope module CU $end
$var wire 7 E opcode [6:0] $end
$var reg 1 @ addr_sel $end
$var reg 4 F alu_op [3:0] $end
$var reg 1 9 mem_write $end
$var reg 1 7 muxA_sel $end
$var reg 2 G muxB_sel [1:0] $end
$var reg 1 2 regA_load $end
$var reg 1 0 regB_load $end
$upscope $end
$scope module DATA_MEM $end
$var wire 1 % clk $end
$var wire 1 9 write_enable $end
$var wire 8 H data_in [7:0] $end
$var wire 8 I address [7:0] $end
$var reg 8 J data_out [7:0] $end
$var integer 32 K i [31:0] $end
$upscope $end
$scope module IM $end
$var wire 8 L address [7:0] $end
$var reg 15 M out [14:0] $end
$upscope $end
$scope module PC $end
$var wire 1 % clk $end
$var reg 8 N pc [7:0] $end
$upscope $end
$scope module addr_mux $end
$var wire 8 O literal [7:0] $end
$var wire 1 @ sel $end
$var wire 8 P regB [7:0] $end
$var reg 8 Q address [7:0] $end
$upscope $end
$scope module muxA_inst $end
$var wire 1 7 sel $end
$var wire 8 R regB [7:0] $end
$var wire 8 S regA [7:0] $end
$var reg 8 T out [7:0] $end
$upscope $end
$scope module muxB_inst $end
$var wire 8 U literal [7:0] $end
$var wire 8 V mem_data [7:0] $end
$var wire 2 W sel [1:0] $end
$var wire 8 X regB [7:0] $end
$var reg 8 Y out [7:0] $end
$upscope $end
$scope module regA $end
$var wire 1 % clk $end
$var wire 8 Z data [7:0] $end
$var wire 1 2 load $end
$var reg 8 [ out [7:0] $end
$upscope $end
$scope module regB $end
$var wire 1 % clk $end
$var wire 8 \ data [7:0] $end
$var wire 1 0 load $end
$var reg 8 ] out [7:0] $end
$upscope $end
$upscope $end
$upscope $end
$enddefinitions $end
$comment Show the parameter values. $end
$dumpall
$end
#0
$dumpvars
b0 ]
b0 \
b0 [
b0 Z
b0 Y
b0 X
bx W
bx V
bx U
bx T
b0 S
b0 R
bx Q
b0 P
bx O
b11111111 N
bx M
b11111111 L
b100000000 K
bx J
bx I
b0 H
bx G
bx F
bx E
b0 D
bx C
b0 B
bx A
x@
bx ?
b0 >
bx =
bx <
bx ;
bx :
x9
bx 8
x7
b0 6
bx 5
bx 4
b11111111 3
x2
b0 1
x0
b0 /
0.
0-
0,
0+
0*
0)
0(
0'
0&
0%
0$
0#
b0 "
b0 !
$end
#1
b0 :
b0 J
b0 V
b0 8
b0 C
b0 T
b101010 >
b101010 D
b101010 Z
b101010 \
b101010 ;
b101010 I
b101010 Q
b101010 6
b101010 B
b101010 Y
0@
09
00
12
b1 5
b1 G
b1 W
07
b1001 ?
b1001 A
b1001 F
b101010 <
b101010 O
b101010 U
b10 4
b10 E
b1000101010 =
b1000101010 M
b0 3
b0 L
b0 N
1%
#2
b101010 8
b101010 C
b101010 T
b101010 !
b101010 1
b101010 H
b101010 S
b101010 [
0%
#3
b1111011 >
b1111011 D
b1111011 Z
b1111011 \
b1111011 ;
b1111011 I
b1111011 Q
b1111011 6
b1111011 B
b1111011 Y
10
02
b1111011 <
b1111011 O
b1111011 U
b11 4
b11 E
b1101111011 =
b1101111011 M
b1 3
b1 L
b1 N
1%
#4
b1111011 "
b1111011 /
b1111011 P
b1111011 R
b1111011 X
b1111011 ]
0%
#5
b1010101 >
b1010101 D
b1010101 Z
b1010101 \
b1010101 ;
b1010101 I
b1010101 Q
b1010101 6
b1010101 B
b1010101 Y
b1010101 <
b1010101 O
b1010101 U
b1101010101 =
b1101010101 M
b10 3
b10 L
b10 N
1%
#6
b1010101 "
b1010101 /
b1010101 P
b1010101 R
b1010101 X
b1010101 ]
0%
#7
b10101010 >
b10101010 D
b10101010 Z
b10101010 \
b10101010 ;
b10101010 I
b10101010 Q
b10101010 6
b10101010 B
b10101010 Y
00
12
b10101010 <
b10101010 O
b10101010 U
b10 4
b10 E
b1010101010 =
b1010101010 M
b11 3
b11 L
b11 N
1%
#8
b10101010 8
b10101010 C
b10101010 T
b10101010 !
b10101010 1
b10101010 H
b10101010 S
b10101010 [
0%
#9
b1010101 >
b1010101 D
b1010101 Z
b1010101 \
b1010101 8
b1010101 C
b1010101 T
b0 ;
b0 I
b0 Q
b0 6
b0 B
b0 Y
17
b0 ?
b0 A
b0 F
b0 <
b0 O
b0 U
b0 4
b0 E
b0 =
b0 M
b100 3
b100 L
b100 N
1%
#10
b1010101 !
b1010101 1
b1010101 H
b1010101 S
b1010101 [
0%
#11
b1100011 >
b1100011 D
b1100011 Z
b1100011 \
b1100011 ;
b1100011 I
b1100011 Q
b1100011 6
b1100011 B
b1100011 Y
07
b1001 ?
b1001 A
b1001 F
b1100011 <
b1100011 O
b1100011 U
b10 4
b10 E
b1001100011 =
b1001100011 M
b101 3
b101 L
b101 N
1%
#12
b1100011 8
b1100011 C
b1100011 T
b1100011 !
b1100011 1
b1100011 H
b1100011 S
b1100011 [
0%
#13
b0 ;
b0 I
b0 Q
b0 6
b0 B
b0 Y
10
02
b0 ?
b0 A
b0 F
b0 <
b0 O
b0 U
b1 4
b1 E
b100000000 =
b100000000 M
b110 3
b110 L
b110 N
1%
#14
b1100011 "
b1100011 /
b1100011 P
b1100011 R
b1100011 X
b1100011 ]
0%
#15
b10 >
b10 D
b10 Z
b10 \
b10 ;
b10 I
b10 Q
b10 6
b10 B
b10 Y
00
12
b1001 ?
b1001 A
b1001 F
b10 <
b10 O
b10 U
b10 4
b10 E
b1000000010 =
b1000000010 M
b111 3
b111 L
b111 N
1%
#16
b10 8
b10 C
b10 T
b10 !
b10 1
b10 H
b10 S
b10 [
0%
#17
b11 >
b11 D
b11 Z
b11 \
b11 ;
b11 I
b11 Q
b11 6
b11 B
b11 Y
10
02
b11 <
b11 O
b11 U
b11 4
b11 E
b1100000011 =
b1100000011 M
b1000 3
b1000 L
b1000 N
1%
#18
b11 "
b11 /
b11 P
b11 R
b11 X
b11 ]
0%
#19
b101 >
b101 D
b101 Z
b101 \
b0 ;
b0 I
b0 Q
00
12
b0 5
b0 G
b0 W
b0 ?
b0 A
b0 F
b0 <
b0 O
b0 U
b100 4
b100 E
b10000000000 =
b10000000000 M
b1001 3
b1001 L
b1001 N
1%
#20
b1000 >
b1000 D
b1000 Z
b1000 \
b101 8
b101 C
b101 T
b101 !
b101 1
b101 H
b101 S
b101 [
0%
#21
b1111 >
b1111 D
b1111 Z
b1111 \
b1010 ;
b1010 I
b1010 Q
b1010 6
b1010 B
b1010 Y
b1 5
b1 G
b1 W
b1010 <
b1010 O
b1010 U
b110 4
b110 E
b11000001010 =
b11000001010 M
b1010 3
b1010 L
b1010 N
1%
#22
b11001 >
b11001 D
b11001 Z
b11001 \
b1111 8
b1111 C
b1111 T
b1111 !
b1111 1
b1111 H
b1111 S
b1111 [
0%
#23
b10111 >
b10111 D
b10111 Z
b10111 \
b11 8
b11 C
b11 T
b10100 ;
b10100 I
b10100 Q
b10100 6
b10100 B
b10100 Y
10
02
17
b10100 <
b10100 O
b10100 U
b111 4
b111 E
b11100010100 =
b11100010100 M
b1011 3
b1011 L
b1011 N
1%
#24
b101011 >
b101011 D
b101011 Z
b101011 \
b10111 8
b10111 C
b10111 T
b10111 "
b10111 /
b10111 P
b10111 R
b10111 X
b10111 ]
0%
#25
b1111 8
b1111 C
b1111 T
b10100 >
b10100 D
b10100 Z
b10100 \
00
12
07
b1001 ?
b1001 A
b1001 F
b10 4
b10 E
b1000010100 =
b1000010100 M
b1100 3
b1100 L
b1100 N
1%
#26
b10100 8
b10100 C
b10100 T
b10100 !
b10100 1
b10100 H
b10100 S
b10100 [
0%
#27
b101 >
b101 D
b101 Z
b101 \
b101 ;
b101 I
b101 Q
b101 6
b101 B
b101 Y
10
02
b101 <
b101 O
b101 U
b11 4
b11 E
b1100000101 =
b1100000101 M
b1101 3
b1101 L
b1101 N
1%
#28
b101 "
b101 /
b101 P
b101 R
b101 X
b101 ]
0%
#29
b1111 >
b1111 D
b1111 Z
b1111 \
b0 ;
b0 I
b0 Q
00
12
b0 5
b0 G
b0 W
b1 ?
b1 A
b1 F
b0 <
b0 O
b0 U
b1000 4
b1000 E
b100000000000 =
b100000000000 M
b1110 3
b1110 L
b1110 N
1%
#30
b1010 >
b1010 D
b1010 Z
b1010 \
b1111 8
b1111 C
b1111 T
b1111 !
b1111 1
b1111 H
b1111 S
b1111 [
0%
#31
10
02
b1001 4
b1001 E
b100100000000 =
b100100000000 M
b1111 3
b1111 L
b1111 N
1%
#32
b101 >
b101 D
b101 Z
b101 \
b1010 6
b1010 B
b1010 Y
b1010 "
b1010 /
b1010 P
b1010 R
b1010 X
b1010 ]
0%
#33
b1000 >
b1000 D
b1000 Z
b1000 \
b111 ;
b111 I
b111 Q
b111 6
b111 B
b111 Y
00
12
b1 5
b1 G
b1 W
b111 <
b111 O
b111 U
b1010 4
b1010 E
b101000000111 =
b101000000111 M
b10000 3
b10000 L
b10000 N
1%
#34
b1 >
b1 D
b1 Z
b1 \
b1000 8
b1000 C
b1000 T
b1000 !
b1000 1
b1000 H
b1000 S
b1000 [
0%
#35
b0 >
b0 D
b0 Z
b0 \
b1010 8
b1010 C
b1010 T
b1010 ;
b1010 I
b1010 Q
b1010 6
b1010 B
b1010 Y
10
02
17
b1010 <
b1010 O
b1010 U
b1011 4
b1011 E
b101100001010 =
b101100001010 M
b10001 3
b10001 L
b10001 N
1%
#36
b11110110 >
b11110110 D
b11110110 Z
b11110110 \
b0 8
b0 C
b0 T
b0 "
b0 /
b0 P
b0 R
b0 X
b0 ]
0%
#37
b1000 8
b1000 C
b1000 T
b11001010 >
b11001010 D
b11001010 Z
b11001010 \
b11001010 ;
b11001010 I
b11001010 Q
b11001010 6
b11001010 B
b11001010 Y
00
12
07
b1001 ?
b1001 A
b1001 F
b11001010 <
b11001010 O
b11001010 U
b10 4
b10 E
b1011001010 =
b1011001010 M
b10010 3
b10010 L
b10010 N
1%
#38
b11001010 8
b11001010 C
b11001010 T
b11001010 !
b11001010 1
b11001010 H
b11001010 S
b11001010 [
0%
#39
b10101110 >
b10101110 D
b10101110 Z
b10101110 \
b10101110 ;
b10101110 I
b10101110 Q
b10101110 6
b10101110 B
b10101110 Y
10
02
b10101110 <
b10101110 O
b10101110 U
b11 4
b11 E
b1110101110 =
b1110101110 M
b10011 3
b10011 L
b10011 N
1%
#40
b10101110 "
b10101110 /
b10101110 P
b10101110 R
b10101110 X
b10101110 ]
0%
#41
b10001010 >
b10001010 D
b10001010 Z
b10001010 \
b0 ;
b0 I
b0 Q
00
12
b0 5
b0 G
b0 W
b10 ?
b10 A
b10 F
b0 <
b0 O
b0 U
b1100 4
b1100 E
b110000000000 =
b110000000000 M
b10100 3
b10100 L
b10100 N
1%
#42
b10001010 8
b10001010 C
b10001010 T
b10001010 !
b10001010 1
b10001010 H
b10001010 S
b10001010 [
0%
#43
10
02
b1101 4
b1101 E
b110100000000 =
b110100000000 M
b10101 3
b10101 L
b10101 N
1%
#44
b10001010 6
b10001010 B
b10001010 Y
b10001010 "
b10001010 /
b10001010 P
b10001010 R
b10001010 X
b10001010 ]
0%
#45
b11110000 >
b11110000 D
b11110000 Z
b11110000 \
b11110000 ;
b11110000 I
b11110000 Q
b11110000 6
b11110000 B
b11110000 Y
00
12
b1 5
b1 G
b1 W
b1001 ?
b1001 A
b1001 F
b11110000 <
b11110000 O
b11110000 U
b10 4
b10 E
b1011110000 =
b1011110000 M
b10110 3
b10110 L
b10110 N
1%
#46
b11110000 8
b11110000 C
b11110000 T
b11110000 !
b11110000 1
b11110000 H
b11110000 S
b11110000 [
0%
#47
b1010000 >
b1010000 D
b1010000 Z
b1010000 \
b1010101 ;
b1010101 I
b1010101 Q
b1010101 6
b1010101 B
b1010101 Y
b10 ?
b10 A
b10 F
b1010101 <
b1010101 O
b1010101 U
b1110 4
b1110 E
b111001010101 =
b111001010101 M
b10111 3
b10111 L
b10111 N
1%
#48
b1010000 8
b1010000 C
b1010000 T
b1010000 !
b1010000 1
b1010000 H
b1010000 S
b1010000 [
0%
#49
b11001100 >
b11001100 D
b11001100 Z
b11001100 \
b11001100 ;
b11001100 I
b11001100 Q
b11001100 6
b11001100 B
b11001100 Y
10
02
b1001 ?
b1001 A
b1001 F
b11001100 <
b11001100 O
b11001100 U
b11 4
b11 E
b1111001100 =
b1111001100 M
b11000 3
b11000 L
b11000 N
1%
#50
b11001100 "
b11001100 /
b11001100 P
b11001100 R
b11001100 X
b11001100 ]
0%
#51
b11001100 8
b11001100 C
b11001100 T
b10001000 >
b10001000 D
b10001000 Z
b10001000 \
b10101010 ;
b10101010 I
b10101010 Q
b10101010 6
b10101010 B
b10101010 Y
17
b10 ?
b10 A
b10 F
b10101010 <
b10101010 O
b10101010 U
b1111 4
b1111 E
b111110101010 =
b111110101010 M
b11001 3
b11001 L
b11001 N
1%
#52
b10001000 8
b10001000 C
b10001000 T
b10001000 "
b10001000 /
b10001000 P
b10001000 R
b10001000 X
b10001000 ]
0%
#53
b1010000 8
b1010000 C
b1010000 T
b11001010 >
b11001010 D
b11001010 Z
b11001010 \
b11001010 ;
b11001010 I
b11001010 Q
b11001010 6
b11001010 B
b11001010 Y
00
12
07
b1001 ?
b1001 A
b1001 F
b11001010 <
b11001010 O
b11001010 U
b10 4
b10 E
b1011001010 =
b1011001010 M
b11010 3
b11010 L
b11010 N
1%
#54
b11001010 8
b11001010 C
b11001010 T
b11001010 !
b11001010 1
b11001010 H
b11001010 S
b11001010 [
0%
#55
b10101110 >
b10101110 D
b10101110 Z
b10101110 \
b10101110 ;
b10101110 I
b10101110 Q
b10101110 6
b10101110 B
b10101110 Y
10
02
b10101110 <
b10101110 O
b10101110 U
b11 4
b11 E
b1110101110 =
b1110101110 M
b11011 3
b11011 L
b11011 N
1%
#56
b10101110 "
b10101110 /
b10101110 P
b10101110 R
b10101110 X
b10101110 ]
0%
#57
b11101110 >
b11101110 D
b11101110 Z
b11101110 \
b0 ;
b0 I
b0 Q
00
12
b0 5
b0 G
b0 W
b11 ?
b11 A
b11 F
b0 <
b0 O
b0 U
b10000 4
b10000 E
b1000000000000 =
b1000000000000 M
b11100 3
b11100 L
b11100 N
1%
#58
b11101110 8
b11101110 C
b11101110 T
b11101110 !
b11101110 1
b11101110 H
b11101110 S
b11101110 [
0%
#59
10
02
b10001 4
b10001 E
b1000100000000 =
b1000100000000 M
b11101 3
b11101 L
b11101 N
1%
#60
b11101110 6
b11101110 B
b11101110 Y
b11101110 "
b11101110 /
b11101110 P
b11101110 R
b11101110 X
b11101110 ]
0%
#61
b110011 >
b110011 D
b110011 Z
b110011 \
b110011 ;
b110011 I
b110011 Q
b110011 6
b110011 B
b110011 Y
00
12
b1 5
b1 G
b1 W
b1001 ?
b1001 A
b1001 F
b110011 <
b110011 O
b110011 U
b10 4
b10 E
b1000110011 =
b1000110011 M
b11110 3
b11110 L
b11110 N
1%
#62
b110011 8
b110011 C
b110011 T
b110011 !
b110011 1
b110011 H
b110011 S
b110011 [
0%
#63
b11110011 >
b11110011 D
b11110011 Z
b11110011 \
b11110000 ;
b11110000 I
b11110000 Q
b11110000 6
b11110000 B
b11110000 Y
b11 ?
b11 A
b11 F
b11110000 <
b11110000 O
b11110000 U
b10010 4
b10010 E
b1001011110000 =
b1001011110000 M
b11111 3
b11111 L
b11111 N
1%
#64
b11110011 8
b11110011 C
b11110011 T
b11110011 !
b11110011 1
b11110011 H
b11110011 S
b11110011 [
0%
#65
b10100101 >
b10100101 D
b10100101 Z
b10100101 \
b10100101 ;
b10100101 I
b10100101 Q
b10100101 6
b10100101 B
b10100101 Y
10
02
b1001 ?
b1001 A
b1001 F
b10100101 <
b10100101 O
b10100101 U
b11 4
b11 E
b1110100101 =
b1110100101 M
b100000 3
b100000 L
b100000 N
1%
#66
b10100101 "
b10100101 /
b10100101 P
b10100101 R
b10100101 X
b10100101 ]
0%
#67
b10100101 8
b10100101 C
b10100101 T
b11111111 >
b11111111 D
b11111111 Z
b11111111 \
b1011010 ;
b1011010 I
b1011010 Q
b1011010 6
b1011010 B
b1011010 Y
17
b11 ?
b11 A
b11 F
b1011010 <
b1011010 O
b1011010 U
b10011 4
b10011 E
b1001101011010 =
b1001101011010 M
b100001 3
b100001 L
b100001 N
1%
#68
b11111111 8
b11111111 C
b11111111 T
b11111111 "
b11111111 /
b11111111 P
b11111111 R
b11111111 X
b11111111 ]
0%
#69
b11110011 8
b11110011 C
b11110011 T
b10101010 >
b10101010 D
b10101010 Z
b10101010 \
b10101010 ;
b10101010 I
b10101010 Q
b10101010 6
b10101010 B
b10101010 Y
00
12
07
b1001 ?
b1001 A
b1001 F
b10101010 <
b10101010 O
b10101010 U
b10 4
b10 E
b1010101010 =
b1010101010 M
b100010 3
b100010 L
b100010 N
1%
#70
b10101010 8
b10101010 C
b10101010 T
b10101010 !
b10101010 1
b10101010 H
b10101010 S
b10101010 [
0%
#71
b1010101 >
b1010101 D
b1010101 Z
b1010101 \
b0 ;
b0 I
b0 Q
b11111111 6
b11111111 B
b11111111 Y
b0 5
b0 G
b0 W
b100 ?
b100 A
b100 F
b0 <
b0 O
b0 U
b10100 4
b10100 E
b1010000000000 =
b1010000000000 M
b100011 3
b100011 L
b100011 N
1%
#72
b10101010 >
b10101010 D
b10101010 Z
b10101010 \
b1010101 8
b1010101 C
b1010101 T
b1010101 !
b1010101 1
b1010101 H
b1010101 S
b1010101 [
0%
#73
b11001100 >
b11001100 D
b11001100 Z
b11001100 \
b11001100 ;
b11001100 I
b11001100 Q
b11001100 6
b11001100 B
b11001100 Y
10
02
b1 5
b1 G
b1 W
b1001 ?
b1001 A
b1001 F
b11001100 <
b11001100 O
b11001100 U
b11 4
b11 E
b1111001100 =
b1111001100 M
b100100 3
b100100 L
b100100 N
1%
#74
b11001100 "
b11001100 /
b11001100 P
b11001100 R
b11001100 X
b11001100 ]
0%
#75
b11001100 8
b11001100 C
b11001100 T
b110011 >
b110011 D
b110011 Z
b110011 \
b0 ;
b0 I
b0 Q
b0 5
b0 G
b0 W
17
b100 ?
b100 A
b100 F
b0 <
b0 O
b0 U
b10111 4
b10111 E
b1011100000000 =
b1011100000000 M
b100101 3
b100101 L
b100101 N
1%
#76
b11001100 >
b11001100 D
b11001100 Z
b11001100 \
b110011 8
b110011 C
b110011 T
b110011 6
b110011 B
b110011 Y
b110011 "
b110011 /
b110011 P
b110011 R
b110011 X
b110011 ]
0%
#77
b1010101 8
b1010101 C
b1010101 T
b11111111 >
b11111111 D
b11111111 Z
b11111111 \
b11111111 ;
b11111111 I
b11111111 Q
b11111111 6
b11111111 B
b11111111 Y
00
12
b1 5
b1 G
b1 W
07
b1001 ?
b1001 A
b1001 F
b11111111 <
b11111111 O
b11111111 U
b10 4
b10 E
b1011111111 =
b1011111111 M
b100110 3
b100110 L
b100110 N
1%
#78
b11111111 8
b11111111 C
b11111111 T
b11111111 !
b11111111 1
b11111111 H
b11111111 S
b11111111 [
0%
#79
b11110000 >
b11110000 D
b11110000 Z
b11110000 \
b11110000 ;
b11110000 I
b11110000 Q
b11110000 6
b11110000 B
b11110000 Y
10
02
b11110000 <
b11110000 O
b11110000 U
b11 4
b11 E
b1111110000 =
b1111110000 M
b100111 3
b100111 L
b100111 N
1%
#80
b11110000 "
b11110000 /
b11110000 P
b11110000 R
b11110000 X
b11110000 ]
0%
#81
b11110000 8
b11110000 C
b11110000 T
b1111 >
b1111 D
b1111 Z
b1111 \
b0 ;
b0 I
b0 Q
00
12
b0 5
b0 G
b0 W
17
b100 ?
b100 A
b100 F
b0 <
b0 O
b0 U
b10101 4
b10101 E
b1010100000000 =
b1010100000000 M
b101000 3
b101000 L
b101000 N
1%
#82
b1111 !
b1111 1
b1111 H
b1111 S
b1111 [
0%
#83
b1111 8
b1111 C
b1111 T
b1111 ;
b1111 I
b1111 Q
b1111 6
b1111 B
b1111 Y
b1 5
b1 G
b1 W
07
b1001 ?
b1001 A
b1001 F
b1111 <
b1111 O
b1111 U
b10 4
b10 E
b1000001111 =
b1000001111 M
b101001 3
b101001 L
b101001 N
1%
#84
0%
#85
b11111111 >
b11111111 D
b11111111 Z
b11111111 \
b11111111 ;
b11111111 I
b11111111 Q
b11111111 6
b11111111 B
b11111111 Y
10
02
b11111111 <
b11111111 O
b11111111 U
b11 4
b11 E
b1111111111 =
b1111111111 M
b101010 3
b101010 L
b101010 N
1%
#86
b11111111 "
b11111111 /
b11111111 P
b11111111 R
b11111111 X
b11111111 ]
0%
#87
b11110000 >
b11110000 D
b11110000 Z
b11110000 \
b0 ;
b0 I
b0 Q
b0 5
b0 G
b0 W
b100 ?
b100 A
b100 F
b0 <
b0 O
b0 U
b10110 4
b10110 E
b1011000000000 =
b1011000000000 M
b101011 3
b101011 L
b101011 N
1%
#88
b11110000 6
b11110000 B
b11110000 Y
b11110000 "
b11110000 /
b11110000 P
b11110000 R
b11110000 X
b11110000 ]
0%
#89
b11001010 >
b11001010 D
b11001010 Z
b11001010 \
b11001010 ;
b11001010 I
b11001010 Q
b11001010 6
b11001010 B
b11001010 Y
00
12
b1 5
b1 G
b1 W
b1001 ?
b1001 A
b1001 F
b11001010 <
b11001010 O
b11001010 U
b10 4
b10 E
b1011001010 =
b1011001010 M
b101100 3
b101100 L
b101100 N
1%
#90
b11001010 8
b11001010 C
b11001010 T
b11001010 !
b11001010 1
b11001010 H
b11001010 S
b11001010 [
0%
#91
b10101110 >
b10101110 D
b10101110 Z
b10101110 \
b10101110 ;
b10101110 I
b10101110 Q
b10101110 6
b10101110 B
b10101110 Y
10
02
b10101110 <
b10101110 O
b10101110 U
b11 4
b11 E
b1110101110 =
b1110101110 M
b101101 3
b101101 L
b101101 N
1%
#92
b10101110 "
b10101110 /
b10101110 P
b10101110 R
b10101110 X
b10101110 ]
0%
#93
b1100100 >
b1100100 D
b1100100 Z
b1100100 \
b0 ;
b0 I
b0 Q
00
12
b0 5
b0 G
b0 W
b101 ?
b101 A
b101 F
b0 <
b0 O
b0 U
b11000 4
b11000 E
b1100000000000 =
b1100000000000 M
b101110 3
b101110 L
b101110 N
1%
#94
b11001010 >
b11001010 D
b11001010 Z
b11001010 \
b1100100 8
b1100100 C
b1100100 T
b1100100 !
b1100100 1
b1100100 H
b1100100 S
b1100100 [
0%
#95
b101111 3
b101111 L
b101111 N
1%
#96
b1100100 >
b1100100 D
b1100100 Z
b1100100 \
b11001010 8
b11001010 C
b11001010 T
b11001010 !
b11001010 1
b11001010 H
b11001010 S
b11001010 [
0%
#97
b11110000 >
b11110000 D
b11110000 Z
b11110000 \
b11110000 ;
b11110000 I
b11110000 Q
b11110000 6
b11110000 B
b11110000 Y
b1 5
b1 G
b1 W
b1001 ?
b1001 A
b1001 F
b11110000 <
b11110000 O
b11110000 U
b10 4
b10 E
b1011110000 =
b1011110000 M
b110000 3
b110000 L
b110000 N
1%
#98
b11110000 8
b11110000 C
b11110000 T
b11110000 !
b11110000 1
b11110000 H
b11110000 S
b11110000 [
0%
#99
b10101010 >
b10101010 D
b10101010 Z
b10101010 \
b10101010 ;
b10101010 I
b10101010 Q
b10101010 6
b10101010 B
b10101010 Y
10
02
b10101010 <
b10101010 O
b10101010 U
b11 4
b11 E
b1110101010 =
b1110101010 M
b110001 3
b110001 L
b110001 N
1%
#100
b10101010 "
b10101010 /
b10101010 P
b10101010 R
b10101010 X
b10101010 ]
0%
#101
b1011010 >
b1011010 D
b1011010 Z
b1011010 \
b0 ;
b0 I
b0 Q
b0 5
b0 G
b0 W
b101 ?
b101 A
b101 F
b0 <
b0 O
b0 U
b11001 4
b11001 E
b1100100000000 =
b1100100000000 M
b110010 3
b110010 L
b110010 N
1%
#102
b10101010 >
b10101010 D
b10101010 Z
b10101010 \
b1011010 6
b1011010 B
b1011010 Y
b1011010 "
b1011010 /
b1011010 P
b1011010 R
b1011010 X
b1011010 ]
0%
#103
b111100 >
b111100 D
b111100 Z
b111100 \
b111100 ;
b111100 I
b111100 Q
b111100 6
b111100 B
b111100 Y
00
12
b1 5
b1 G
b1 W
b1001 ?
b1001 A
b1001 F
b111100 <
b111100 O
b111100 U
b10 4
b10 E
b1000111100 =
b1000111100 M
b110011 3
b110011 L
b110011 N
1%
#104
b111100 8
b111100 C
b111100 T
b111100 !
b111100 1
b111100 H
b111100 S
b111100 [
0%
#105
b11000011 >
b11000011 D
b11000011 Z
b11000011 \
b11111111 ;
b11111111 I
b11111111 Q
b11111111 6
b11111111 B
b11111111 Y
b101 ?
b101 A
b101 F
b11111111 <
b11111111 O
b11111111 U
b11010 4
b11010 E
b1101011111111 =
b1101011111111 M
b110100 3
b110100 L
b110100 N
1%
#106
b111100 >
b111100 D
b111100 Z
b111100 \
b11000011 8
b11000011 C
b11000011 T
b11000011 !
b11000011 1
b11000011 H
b11000011 S
b11000011 [
0%
#107
b10010010 >
b10010010 D
b10010010 Z
b10010010 \
b10010010 ;
b10010010 I
b10010010 Q
b10010010 6
b10010010 B
b10010010 Y
10
02
b1001 ?
b1001 A
b1001 F
b10010010 <
b10010010 O
b10010010 U
b11 4
b11 E
b1110010010 =
b1110010010 M
b110101 3
b110101 L
b110101 N
1%
#108
b10010010 "
b10010010 /
b10010010 P
b10010010 R
b10010010 X
b10010010 ]
0%
#109
b10010010 8
b10010010 C
b10010010 T
b11110100 >
b11110100 D
b11110100 Z
b11110100 \
b1100110 ;
b1100110 I
b1100110 Q
b1100110 6
b1100110 B
b1100110 Y
17
b101 ?
b101 A
b101 F
b1100110 <
b1100110 O
b1100110 U
b11011 4
b11011 E
b1101101100110 =
b1101101100110 M
b110110 3
b110110 L
b110110 N
1%
#110
b10010010 >
b10010010 D
b10010010 Z
b10010010 \
b11110100 8
b11110100 C
b11110100 T
b11110100 "
b11110100 /
b11110100 P
b11110100 R
b11110100 X
b11110100 ]
0%
#111
b11000011 8
b11000011 C
b11000011 T
b101 >
b101 D
b101 Z
b101 \
b101 ;
b101 I
b101 Q
b101 6
b101 B
b101 Y
00
12
07
b1001 ?
b1001 A
b1001 F
b101 <
b101 O
b101 U
b10 4
b10 E
b1000000101 =
b1000000101 M
b110111 3
b110111 L
b110111 N
1%
#112
b101 8
b101 C
b101 T
b101 !
b101 1
b101 H
b101 S
b101 [
0%
#113
b1010 >
b1010 D
b1010 Z
b1010 \
b0 ;
b0 I
b0 Q
b11110100 6
b11110100 B
b11110100 Y
b0 5
b0 G
b0 W
b110 ?
b110 A
b110 F
b0 <
b0 O
b0 U
b11100 4
b11100 E
b1110000000000 =
b1110000000000 M
b111000 3
b111000 L
b111000 N
1%
#114
b10100 >
b10100 D
b10100 Z
b10100 \
b1010 8
b1010 C
b1010 T
b1010 !
b1010 1
b1010 H
b1010 S
b1010 [
0%
#115
b1100 >
b1100 D
b1100 Z
b1100 \
b1100 ;
b1100 I
b1100 Q
b1100 6
b1100 B
b1100 Y
10
02
b1 5
b1 G
b1 W
b1001 ?
b1001 A
b1001 F
b1100 <
b1100 O
b1100 U
b11 4
b11 E
b1100001100 =
b1100001100 M
b111001 3
b111001 L
b111001 N
1%
#116
b1100 "
b1100 /
b1100 P
b1100 R
b1100 X
b1100 ]
0%
#117
b1100 8
b1100 C
b1100 T
b11000 >
b11000 D
b11000 Z
b11000 \
b0 ;
b0 I
b0 Q
b0 5
b0 G
b0 W
17
b110 ?
b110 A
b110 F
b0 <
b0 O
b0 U
b11111 4
b11111 E
b1111100000000 =
b1111100000000 M
b111010 3
b111010 L
b111010 N
1%
#118
b110000 >
b110000 D
b110000 Z
b110000 \
b11000 8
b11000 C
b11000 T
b11000 6
b11000 B
b11000 Y
b11000 "
b11000 /
b11000 P
b11000 R
b11000 X
b11000 ]
0%
#119
b1010 8
b1010 C
b1010 T
b1100011 >
b1100011 D
b1100011 Z
b1100011 \
b1100011 ;
b1100011 I
b1100011 Q
b1100011 6
b1100011 B
b1100011 Y
00
12
b1 5
b1 G
b1 W
07
b1001 ?
b1001 A
b1001 F
b1100011 <
b1100011 O
b1100011 U
b10 4
b10 E
b1001100011 =
b1001100011 M
b111011 3
b111011 L
b111011 N
1%
#120
b1100011 8
b1100011 C
b1100011 T
b1100011 !
b1100011 1
b1100011 H
b1100011 S
b1100011 [
0%
